142,131,0.41843,3.5806,34,42,0,0,0,0,I,A
143,128,0.25841,4.0747,89,96,0,0,0,0,P,W
131,118,0.24531,4.0524,42,36,0,0,0,0,A,F
140,128,0.18671,7.228,90,96,0,0,0,0,G,W
133,116,0.12535,2.4552,16,52,0,0,0,0,S,E
111,104,0.11049,2.8404,44,52,0,0,0,0,S,A
118,112,0.10887,3.5187,36,56,0,0,0,0,F,F
112,98,0.10529,3.5527,56,70,0,0,0,0,F,A
132,119,0.10253,2.8609,33,18,0,0,0,0,R,Q
129,123,0.10161,7.4276,63,28,0,0,0,0,W,N
130,122,0.099475,6.7508,19,25,0,0,0,0,E,N
128,98,0.095146,13.441,96,70,0,0,0,0,W,A
139,132,0.092045,3.014,25,33,0,0,0,0,N,R
144,129,0.08605,3.3553,29,63,0,0,0,0,S,W
143,98,0.084325,7.9008,89,70,0,0,0,0,P,A
131,112,0.081497,6.7821,42,56,0,0,0,0,A,F
128,102,0.080984,5.0993,96,47,0,0,0,0,W,Y
113,101,0.079005,3.3795,25,54,0,0,0,0,K,D
128,115,0.076076,17.289,96,83,0,0,0,0,W,G
139,130,0.075077,4.9104,25,19,0,0,0,0,N,E
140,110,0.07017,3.5167,90,79,0,0,0,0,G,L
133,118,0.06927,3.7356,16,36,0,0,0,0,S,F
140,115,0.06622,14.884,90,83,0,0,0,0,G,G
140,98,0.066057,11.716,90,70,0,0,0,0,G,A
131,110,0.061263,3.7576,42,79,0,0,0,0,A,L
142,118,0.059035,4.3386,34,36,0,0,0,0,I,F
128,110,0.055668,8.4074,96,79,0,0,0,0,W,L
143,102,0.055606,3.6295,89,47,0,0,0,0,P,Y
142,112,0.053564,3.5854,34,56,0,0,0,0,I,F
140,120,0.053532,7.0731,90,45,0,0,0,0,G,I
141,127,0.052813,7.4705,22,30,0,0,0,0,Y,D
131,120,0.052652,3.8131,42,45,0,0,0,0,A,I
128,100,0.052212,12.12,96,61,0,0,0,0,W,Y
143,110,0.04988,6.1187,89,79,0,0,0,0,P,L
141,109,0.046068,3.1439,22,60,0,0,0,0,Y,D
129,122,0.045033,7.311,63,25,0,0,0,0,W,N
141,124,0.044504,7.2196,22,19,0,0,0,0,Y,T
140,102,0.044451,7.9339,90,47,0,0,0,0,G,Y
127,109,0.04416,8.8525,30,60,0,0,0,0,D,D
143,120,0.044132,7.2848,89,45,0,0,0,0,P,I
117,97,0.043852,4.4098,24,20,0,0,0,0,R,V
143,115,0.043547,11.994,89,83,0,0,0,0,P,G
133,112,0.042756,6.1191,16,56,0,0,0,0,S,F
143,100,0.042637,7.2811,89,61,0,0,0,0,P,Y
134,117,0.040418,2.8878,13,24,0,0,0,0,I,R
128,120,0.037757,7.5082,96,45,0,0,0,0,W,I
116,98,0.037604,2.9353,52,70,0,0,0,0,E,A
133,113,0.036766,7.3461,16,25,0,0,0,0,S,K
140,116,0.036673,9.6588,90,52,0,0,0,0,G,E
141,130,0.035622,4.305,22,19,0,0,0,0,Y,E
114,101,0.035378,2.756,35,54,0,0,0,0,K,D
130,124,0.03532,4.8536,19,19,0,0,0,0,E,T
128,97,0.0351,13.322,96,20,0,0,0,0,W,V
141,106,0.034413,5.1221,22,14,0,0,0,0,Y,T
140,131,0.033641,2.8848,90,42,0,0,0,0,G,A
134,119,0.03284,4.2778,13,18,0,0,0,0,I,Q
132,121,0.03157,6.2145,33,41,0,0,0,0,R,I
129,120,0.031224,3.8296,63,45,0,0,0,0,W,I
128,112,0.0312,8.7253,96,56,0,0,0,0,W,F
130,108,0.030882,7.1824,19,33,0,0,0,0,E,E
119,106,0.03062,15.867,18,14,0,0,0,0,Q,T
124,106,0.030559,14.493,19,14,0,0,0,0,T,T
143,112,0.030233,4.2154,89,56,0,0,0,0,P,F
141,105,0.030117,6.8286,22,18,0,0,0,0,Y,R
130,119,0.030101,4.0461,19,18,0,0,0,0,E,Q
143,116,0.030027,10.636,89,52,0,0,0,0,P,E
144,128,0.030008,4.4252,29,96,0,0,0,0,S,W
140,97,0.029817,12.645,90,20,0,0,0,0,G,V
134,116,0.029712,5.4993,13,52,0,0,0,0,I,E
115,98,0.029644,3.0014,83,70,0,0,0,0,G,A
142,129,0.029626,2.8842,34,63,0,0,0,0,I,W
124,108,0.029349,12.163,19,33,0,0,0,0,T,E
122,106,0.029302,19.207,25,14,0,0,0,0,N,T
128,116,0.029269,15.077,96,52,0,0,0,0,W,E
142,128,0.029158,3.1936,34,96,0,0,0,0,I,W
133,110,0.029086,4.128,16,79,0,0,0,0,S,L
134,106,0.028595,17.021,13,14,0,0,0,0,I,T
133,124,0.028221,13.472,16,19,999,0,0,0,S,T
141,122,0.028169,12.011,22,25,0,0,0,0,Y,N
127,108,0.02815,11.288,30,33,0,0,0,0,D,E
108,102,0.02804,7.6498,33,47,0,0,0,0,E,Y
133,117,0.027747,3.6219,16,24,0,0,0,0,S,R
133,109,0.027687,9.7396,16,60,0,0,0,0,S,D
126,106,0.027367,13.817,19,14,0,0,0,0,G,T
123,106,0.027302,19.099,28,14,0,0,0,0,N,T
113,103,0.027129,5.8657,25,20,0,0,0,0,K,E
130,100,0.027055,14.404,19,61,0,0,0,0,E,Y
130,123,0.026926,8.3892,19,28,0,0,0,0,E,N
125,117,0.026922,17.404,32,24,999,0,0,0,E,R
130,109,0.026787,8.6175,19,60,0,0,0,0,E,D
125,114,0.026725,20.253,32,35,0,0,0,0,E,K
141,129,0.026624,3.447,22,63,0,0,0,0,Y,W
130,106,0.026549,11.023,19,14,0,0,0,0,E,T
133,106,0.026548,13.783,16,14,0,0,0,0,S,T
126,108,0.026365,13.624,19,33,0,0,0,0,G,E
127,106,0.026317,11.195,30,14,0,0,0,0,D,T
130,117,0.026181,10.031,19,24,0,0,0,0,E,R
136,119,0.026131,9.2959,15,18,0,0,0,0,T,Q
128,104,0.02595,9.107,96,52,0,0,0,0,W,A
130,105,0.025908,13.249,19,18,0,0,0,0,E,R
134,121,0.025905,10.562,13,41,0,0,0,0,I,I
133,119,0.025892,5.0693,16,18,0,0,0,0,S,Q
139,121,0.025839,6.8159,25,41,0,0,0,0,N,I
119,105,0.025793,16.7,18,18,0,0,0,0,Q,R
129,106,0.025788,10.021,63,14,0,0,0,0,W,T
127,102,0.025764,8.1926,30,47,0,0,0,0,D,Y
131,121,0.025631,5.5862,42,41,0,0,0,0,A,I
130,107,0.025489,11.048,19,19,0,0,0,0,E,T
134,122,0.025347,12.331,13,25,0,0,0,0,I,N
127,117,0.025308,15.691,30,24,0,0,0,0,D,R
131,102,0.025127,9.2704,42,47,0,0,0,0,A,Y
126,105,0.024969,14.338,19,18,0,0,0,0,G,R
144,127,0.024865,2.8422,29,30,0,0,0,0,S,D
137,109,0.024865,10.785,50,60,0,0,0,0,G,D
123,105,0.024712,21.536,28,18,0,0,0,0,N,R
129,121,0.024656,5.7273,63,41,0,0,0,0,W,I
139,133,0.024575,5.0394,25,16,0,0,0,0,N,S
130,121,0.024285,3.647,19,41,0,0,0,0,E,I
114,100,0.024207,3.5522,35,61,0,0,0,0,K,Y
127,114,0.024192,16.14,30,35,0,0,0,0,D,K
133,108,0.024054,10.794,16,33,0,0,0,0,S,E
142,133,0.023976,7.3678,34,16,0,0,0,0,I,S
124,109,0.023962,12.559,19,60,0,0,0,0,T,D
144,102,0.023818,8.249,29,47,0,0,0,0,S,Y
143,97,0.023603,8.099,89,20,0,0,0,0,P,V
135,124,0.023536,17.994,13,19,0,0,0,0,A,T
125,99,0.023449,14.207,32,54,0,0,0,0,E,L
109,102,0.023446,2.6569,60,47,0,0,0,0,D,Y
141,123,0.023392,11.538,22,28,0,0,0,0,Y,N
109,100,0.023345,11.996,60,61,0,0,0,0,D,Y
130,114,0.023332,15.974,19,35,0,0,0,0,E,K
142,110,0.023302,3.8776,34,79,0,0,0,0,I,L
144,124,0.023267,7.0873,29,19,0,0,0,0,S,T
132,106,0.023159,13.77,33,14,0,0,0,0,R,T
118,98,0.023104,3.8108,36,70,0,0,0,0,F,A
134,103,0.02309,15.651,13,20,0,0,0,0,I,E
128,118,0.023077,11.223,96,36,0,0,0,0,W,F
133,122,0.022734,12.947,16,25,0,0,0,0,S,N
132,124,0.022722,10.241,33,19,0,0,0,0,R,T
141,126,0.022715,9.0808,22,19,0,0,0,0,Y,G
122,109,0.022653,16.869,25,60,0,0,0,0,N,D
142,106,0.022648,8.1391,34,14,0,0,0,0,I,T
133,123,0.022646,15.46,16,28,0,0,0,0,S,N
143,118,0.022592,7.6212,89,36,0,0,0,0,P,F
136,123,0.022459,20.224,15,28,0,0,0,0,T,N
124,99,0.022423,15.383,19,54,0,0,0,0,T,L
125,106,0.022339,14.219,32,14,0,0,0,0,E,T
112,102,0.022237,2.8663,56,47,0,0,0,0,F,Y
139,124,0.022103,12.375,25,19,0,0,0,0,N,T
140,112,0.022035,7.5065,90,56,0,0,0,0,G,F
133,126,0.021965,17.163,16,19,999,0,0,0,S,G
124,103,0.021945,18.201,19,20,0,0,0,0,T,E
135,116,0.021929,4.0967,13,52,0,0,0,0,A,E
141,112,0.021928,5.4688,22,56,0,0,0,0,Y,F
143,131,0.021821,7.4876,89,42,0,0,0,0,P,A
125,108,0.021817,13.049,32,33,0,0,0,0,E,E
124,105,0.021792,16.893,19,18,0,0,0,0,T,R
111,103,0.021774,3.7408,44,20,0,0,0,0,S,E
118,104,0.021735,10.601,36,52,0,0,0,0,F,A
132,117,0.02164,4.2853,33,24,0,0,0,0,R,R
138,106,0.02158,11.319,19,14,0,0,0,0,K,T
131,116,0.021535,8.5594,42,52,0,0,0,0,A,E
141,108,0.021409,2.845,22,33,0,0,0,0,Y,E
127,105,0.021401,10.339,30,18,0,0,0,0,D,R
118,109,0.021323,8.9015,36,60,0,0,0,0,F,D
134,124,0.021313,15.235,13,19,0,0,0,0,I,T
112,104,0.021307,5.6583,56,52,0,0,0,0,F,A
141,133,0.021224,9.0604,22,16,0,0,0,0,Y,S
127,119,0.021074,13.056,30,18,0,0,0,0,D,Q
141,134,0.021042,12.374,22,13,0,0,0,0,Y,I
106,100,0.021013,14.465,14,61,0,0,0,0,T,Y
135,123,0.021007,19.746,13,28,0,0,0,0,A,N
132,120,0.020978,5.1544,33,45,0,0,0,0,R,I
119,113,0.020978,11.617,18,25,0,0,0,0,Q,K
126,114,0.020855,19.408,19,35,0,0,0,0,G,K
119,109,0.020811,11.918,18,60,0,0,0,0,Q,D
122,107,0.020778,19.806,25,19,0,0,0,0,N,T
117,105,0.020754,16.822,24,18,0,0,0,0,R,R
141,98,0.020712,10.806,22,70,0,0,0,0,Y,A
120,98,0.020702,8.4261,45,70,0,0,0,0,I,A
134,123,0.020694,16.194,13,28,0,0,0,0,I,N
124,107,0.020689,16.413,19,19,0,0,0,0,T,T
127,118,0.020681,11.982,30,36,0,0,0,0,D,F
141,113,0.020662,10.725,22,25,0,0,0,0,Y,K
133,111,0.020629,6.1077,16,44,0,0,0,0,S,S
113,106,0.020528,13.591,25,14,0,0,0,0,K,T
113,105,0.020487,12.056,25,18,0,0,0,0,K,R
130,103,0.020458,14.45,19,20,0,0,0,0,E,E
142,115,0.020287,10.866,34,83,0,0,0,0,I,G
139,119,0.02026,6.2621,25,18,0,0,0,0,N,Q
141,125,0.020235,7.9616,22,32,0,0,0,0,Y,E
135,126,0.020187,21.585,13,19,999,0,0,0,A,G
126,119,0.020185,13.513,19,18,0,0,0,0,G,Q
133,125,0.020173,16.912,16,32,999,0,0,0,S,E
133,127,0.020164,15.373,16,30,999,0,0,0,S,D
134,108,0.020094,14.183,13,33,0,0,0,0,I,E
119,99,0.020084,12.335,18,54,0,0,0,0,Q,L
134,97,0.020053,8.0877,13,20,0,0,0,0,I,V
123,108,0.019917,16.436,28,33,0,0,0,0,N,E
138,103,0.019911,11.644,19,20,0,0,0,0,K,E
139,106,0.019831,8.8297,25,14,0,0,0,0,N,T
141,119,0.01982,9.2846,22,18,0,0,0,0,Y,Q
123,117,0.019813,16.302,28,24,999,0,0,0,N,R
108,99,0.019695,16.967,33,54,0,0,0,0,E,L
124,101,0.019691,18.726,19,54,0,0,0,0,T,D
129,114,0.019673,14.861,63,35,0,0,0,0,W,K
123,114,0.019661,23.109,28,35,0,0,0,0,N,K
131,119,0.019647,3.3993,42,18,0,0,0,0,A,Q
134,105,0.019575,17.548,13,18,0,0,0,0,I,R
133,103,0.01949,12.528,16,20,0,0,0,0,S,E
124,117,0.019485,14.064,19,24,999,0,0,0,T,R
114,103,0.019479,8.6698,35,20,0,0,0,0,K,E
135,118,0.019435,6.2632,13,36,0,0,0,0,A,F
131,108,0.019421,7.4092,42,33,0,0,0,0,A,E
137,112,0.01937,9.9868,50,56,0,0,0,0,G,F
114,107,0.019352,18.122,35,19,0,0,0,0,K,T
138,113,0.019339,10.661,19,25,0,0,0,0,K,K
134,113,0.01929,9.7805,13,25,0,0,0,0,I,K
131,98,0.019265,9.2337,42,70,0,0,0,0,A,A
129,118,0.019253,8.046,63,36,0,0,0,0,W,F
136,130,0.019252,11.793,15,19,999,0,0,0,T,E
143,121,0.019216,11.685,89,41,0,0,0,0,P,I
141,100,0.01921,10.918,22,61,0,0,0,0,Y,Y
134,125,0.01904,19.099,13,32,0,0,0,0,I,E
136,117,0.019038,6.2415,15,24,0,0,0,0,T,R
134,127,0.019032,17.645,13,30,999,0,0,0,I,D
128,122,0.019029,9.8215,96,25,0,0,0,0,W,N
111,102,0.019003,3.3933,44,47,0,0,0,0,S,Y
131,123,0.01899,10.578,42,28,0,0,0,0,A,N
135,103,0.018958,13.74,13,20,0,0,0,0,A,E
131,124,0.018932,7.77,42,19,0,0,0,0,A,T
135,125,0.018911,21.755,13,32,0,0,0,0,A,E
133,105,0.018855,14.355,16,18,0,0,0,0,S,R
135,108,0.018846,15.716,13,33,0,0,0,0,A,E
125,107,0.018806,16.914,32,19,0,0,0,0,E,T
135,113,0.018792,7.9621,13,25,0,0,0,0,A,K
138,119,0.018791,7.2391,19,18,0,0,0,0,K,Q
140,101,0.018772,13.289,90,54,0,0,0,0,G,D
139,105,0.018731,11.373,25,18,0,0,0,0,N,R
125,109,0.018709,12.352,32,60,0,0,0,0,E,D
138,123,0.018672,16.277,19,28,0,0,0,0,K,N
144,112,0.018662,7.5086,29,56,0,0,0,0,S,F
135,122,0.018658,16.801,13,25,0,0,0,0,A,N
135,105,0.018651,17.769,13,18,0,0,0,0,A,R
139,123,0.018639,13.261,25,28,0,0,0,0,N,N
142,134,0.018637,9.7724,34,13,0,0,0,0,I,I
122,105,0.018607,21.227,25,18,0,0,0,0,N,R
128,109,0.018593,5.1155,96,60,0,0,0,0,W,D
129,119,0.018567,7.2326,63,18,0,0,0,0,W,Q
126,120,0.018564,9.1728,19,45,0,0,0,0,G,I
125,119,0.01852,12.471,32,18,999,0,0,0,E,Q
135,106,0.018517,17.517,13,14,0,0,0,0,A,T
120,102,0.018462,11.317,45,47,0,0,0,0,I,Y
117,108,0.018454,14.427,24,33,0,0,0,0,R,E
128,114,0.018422,15.919,96,35,0,0,0,0,W,K
117,103,0.018399,13.981,24,20,0,0,0,0,R,E
139,122,0.018382,11.155,25,25,0,0,0,0,N,N
138,132,0.018377,3.3794,19,33,0,0,0,0,K,R
127,100,0.01836,10.964,30,61,0,0,0,0,D,Y
139,108,0.018354,5.0454,25,33,0,0,0,0,N,E
140,132,0.018349,5.1227,90,33,0,0,0,0,G,R
141,135,0.018336,13.997,22,13,0,0,0,0,Y,A
122,113,0.018313,19.156,25,25,999,0,0,0,N,K
123,99,0.018299,19.121,28,54,0,0,0,0,N,L
119,108,0.018291,11.81,18,33,0,0,0,0,Q,E
136,116,0.018277,3.9706,15,52,0,0,0,0,T,E
138,124,0.018266,14.276,19,19,0,0,0,0,K,T
140,109,0.018205,4.3293,90,60,0,0,0,0,G,D
140,118,0.018194,6.9116,90,36,0,0,0,0,G,F
122,108,0.018149,15.646,25,33,0,0,0,0,N,E
129,117,0.018129,11.039,63,24,0,0,0,0,W,R
140,104,0.018128,8.3698,90,52,0,0,0,0,G,A
133,121,0.018111,9.453,16,41,0,0,0,0,S,I
124,104,0.018109,17.223,19,52,0,0,0,0,T,A
142,130,0.017923,5.1716,34,19,0,0,0,0,I,E
132,122,0.017857,9.765,33,25,0,0,0,0,R,N
106,97,0.017817,18.273,14,20,0,0,0,0,T,V
132,107,0.017772,12.807,33,19,0,0,0,0,R,T
117,106,0.017743,16.942,24,14,0,0,0,0,R,T
136,129,0.017725,12.97,15,63,999,0,0,0,T,W
137,117,0.017723,7.2809,50,24,0,0,0,0,G,R
114,105,0.017689,14.093,35,18,0,0,0,0,K,R
121,106,0.017683,15.197,41,14,0,0,0,0,I,T
144,98,0.017675,8.5307,29,70,0,0,0,0,S,A
139,126,0.017662,15.78,25,19,0,0,0,0,N,G
114,106,0.017662,16.286,35,14,0,0,0,0,K,T
144,130,0.017659,7.94,29,19,0,0,0,0,S,E
127,103,0.017616,12.279,30,20,0,0,0,0,D,E
134,109,0.017612,12.868,13,60,0,0,0,0,I,D
144,106,0.017604,12.445,29,14,0,0,0,0,S,T
132,118,0.017589,3.0998,33,36,0,0,0,0,R,F
141,128,0.017571,4.3702,22,96,0,0,0,0,Y,W
131,125,0.017529,10.529,42,32,999,0,0,0,A,E
134,114,0.017515,11.625,13,35,0,0,0,0,I,K
135,121,0.017512,13.764,13,41,0,0,0,0,A,I
129,109,0.017503,7.5545,63,60,0,0,0,0,W,D
129,112,0.017495,7.9035,63,56,0,0,0,0,W,F
126,109,0.017449,11.922,19,60,0,0,0,0,G,D
141,131,0.017443,4.9084,22,42,0,0,0,0,Y,A
119,107,0.017419,15.382,18,19,0,0,0,0,Q,T
138,108,0.017405,8.6393,19,33,0,0,0,0,K,E
123,107,0.017402,20.702,28,19,0,0,0,0,N,T
136,113,0.017396,7.7762,15,25,0,0,0,0,T,K
127,121,0.017377,11.071,30,41,0,0,0,0,D,I
130,118,0.017363,6.6145,19,36,0,0,0,0,E,F
135,117,0.017319,4.1407,13,24,0,0,0,0,A,R
142,120,0.017312,3.7725,34,45,0,0,0,0,I,I
124,114,0.017307,19.302,19,35,0,0,0,0,T,K
134,126,0.017294,19.303,13,19,0,0,0,0,I,G
144,125,0.01727,5.3141,29,32,0,0,0,0,S,E
139,113,0.017246,12.407,25,25,0,0,0,0,N,K
112,106,0.017192,9.948,56,14,0,0,0,0,F,T
135,112,0.017186,8.0964,13,56,0,0,0,0,A,F
141,121,0.017182,7.5798,22,41,0,0,0,0,Y,I
137,128,0.017178,16.381,50,96,999,0,0,0,G,W
134,118,0.017159,4.2159,13,36,0,0,0,0,I,F
128,121,0.017153,7.3385,96,41,0,0,0,0,W,I
129,105,0.017139,11.43,63,18,0,0,0,0,W,R
144,110,0.017099,10.373,29,79,0,0,0,0,S,L
123,113,0.017094,21.66,28,25,0,0,0,0,N,K
142,100,0.017086,8.7012,34,61,0,0,0,0,I,Y
125,102,0.017054,13.763,32,47,0,0,0,0,E,Y
109,103,0.017041,5.205,60,20,0,0,0,0,D,E
142,127,0.017029,4.0083,34,30,0,0,0,0,I,D
117,109,0.01701,12.81,24,60,0,0,0,0,R,D
142,114,0.016992,10.73,34,35,0,0,0,0,I,K
121,108,0.016974,11.709,41,33,0,0,0,0,I,E
135,119,0.016972,7.5754,13,18,0,0,0,0,A,Q
138,104,0.016964,10.278,19,52,0,0,0,0,K,A
124,113,0.01695,18.056,19,25,0,0,0,0,T,K
138,122,0.016871,14.031,19,25,0,0,0,0,K,N
130,99,0.016843,14.063,19,54,0,0,0,0,E,L
132,125,0.016772,13.823,33,32,999,0,0,0,R,E
138,105,0.016689,13.257,19,18,0,0,0,0,K,R
138,130,0.016677,7.8686,19,19,0,0,0,0,K,E
142,109,0.016629,5.3087,34,60,0,0,0,0,I,D
123,102,0.016511,18.917,28,47,0,0,0,0,N,Y
114,99,0.016472,3.3957,35,54,0,0,0,0,K,L
121,114,0.016449,18.268,41,35,999,0,0,0,I,K
128,101,0.016403,12.205,96,54,0,0,0,0,W,D
141,132,0.016363,7.4644,22,33,0,0,0,0,Y,R
125,97,0.016329,14.436,32,20,0,0,0,0,E,V
123,109,0.016317,17.22,28,60,0,0,0,0,N,D
127,112,0.016306,9.5782,30,56,0,0,0,0,D,F
136,124,0.016294,17.989,15,19,0,0,0,0,T,T
144,109,0.016267,9.5692,29,60,0,0,0,0,S,D
143,104,0.016241,7.7243,89,52,0,0,0,0,P,A
135,109,0.016213,13.679,13,60,0,0,0,0,A,D
119,101,0.0162,15.575,18,54,0,0,0,0,Q,D
138,126,0.016149,17.684,19,19,0,0,0,0,K,G
132,123,0.016136,12.119,33,28,0,0,0,0,R,N
140,134,0.01613,9.7476,90,13,0,0,0,0,G,I
125,105,0.016128,16.055,32,18,0,0,0,0,E,R
119,103,0.016112,16.508,18,20,0,0,0,0,Q,E
139,114,0.016057,15.585,25,35,0,0,0,0,N,K
134,107,0.015997,16.222,13,19,0,0,0,0,I,T
136,106,0.01599,13.401,15,14,0,0,0,0,T,T
136,118,0.015973,7.1593,15,36,0,0,0,0,T,F
129,107,0.015962,11.509,63,19,0,0,0,0,W,T
142,123,0.015945,12.4,34,28,0,0,0,0,I,N
139,100,0.015945,14.922,25,61,0,0,0,0,N,Y
128,99,0.015895,13.915,96,54,0,0,0,0,W,L
118,100,0.015892,6.6949,36,61,0,0,0,0,F,Y
124,100,0.015889,16.57,19,61,0,0,0,0,T,Y
141,114,0.015848,12.953,22,35,0,0,0,0,Y,K
123,103,0.015838,22.696,28,20,0,0,0,0,N,E
130,112,0.015817,9.5037,19,56,0,0,0,0,E,F
113,102,0.01579,4.9294,25,47,0,0,0,0,K,Y
129,108,0.015772,7.1958,63,33,0,0,0,0,W,E
136,105,0.015764,14.486,15,18,0,0,0,0,T,R
119,100,0.015759,13.612,18,61,0,0,0,0,Q,Y
125,104,0.015756,17.276,32,52,0,0,0,0,E,A
137,106,0.015755,14.665,50,14,0,0,0,0,G,T
131,99,0.015713,11.354,42,54,0,0,0,0,A,L
124,118,0.015698,10.805,19,36,999,0,0,0,T,F
134,104,0.015635,15.255,13,52,0,0,0,0,I,A
138,111,0.015622,6.8159,19,44,0,0,0,0,K,S
141,117,0.01562,11.788,22,24,0,0,0,0,Y,R
122,103,0.015568,21.994,25,20,0,0,0,0,N,E
108,101,0.015564,14.193,33,54,0,0,0,0,E,D
122,114,0.015524,20.352,25,35,999,0,0,0,N,K
132,109,0.015511,9.6238,33,60,0,0,0,0,R,D
126,103,0.015471,16.526,19,20,0,0,0,0,G,E
130,113,0.015464,14.065,19,25,0,0,0,0,E,K
137,119,0.01545,8.7023,50,18,0,0,0,0,G,Q
142,97,0.015449,7.2392,34,20,0,0,0,0,I,V
123,115,0.01542,21.495,28,83,0,0,0,0,N,G
139,127,0.015403,13.838,25,30,0,0,0,0,N,D
133,114,0.015401,10.009,16,35,0,0,0,0,S,K
144,134,0.015379,15.326,29,13,0,0,0,0,S,I
143,137,0.01532,15.514,89,50,999,0,0,0,P,G
125,112,0.015299,14.568,32,56,0,0,0,0,E,F
137,105,0.015242,16.497,50,18,0,0,0,0,G,R
124,97,0.015241,12.912,19,20,0,0,0,0,T,V
135,100,0.015234,12.155,13,61,0,0,0,0,A,Y
135,127,0.015223,19.593,13,30,0,0,0,0,A,D
136,122,0.015185,17.81,15,25,0,0,0,0,T,N
143,109,0.015179,5.9516,89,60,0,0,0,0,P,D
132,105,0.015178,14.843,33,18,0,0,0,0,R,R
143,99,0.015153,7.9865,89,54,0,0,0,0,P,L
134,111,0.015128,9.387,13,44,0,0,0,0,I,S
142,102,0.01512,4.914,34,47,0,0,0,0,I,Y
134,115,0.015109,8.5201,13,83,0,0,0,0,I,G
138,127,0.015102,15.7,19,30,0,0,0,0,K,D
136,103,0.015083,11.263,15,20,0,0,0,0,T,E
119,111,0.015012,11.658,18,44,0,0,0,0,Q,S
129,113,0.015003,13.415,63,25,0,0,0,0,W,K
139,111,0.014964,7.433,25,44,0,0,0,0,N,S
117,100,0.014952,9.2677,24,61,0,0,0,0,R,Y
121,107,0.014951,15.552,41,19,0,0,0,0,I,T
139,107,0.014943,6.6036,25,19,0,0,0,0,N,T
136,126,0.014864,20.892,15,19,0,0,0,0,T,G
142,124,0.014856,8.1039,34,19,0,0,0,0,I,T
139,103,0.014848,12.073,25,20,0,0,0,0,N,E
133,101,0.014842,11.832,16,54,0,0,0,0,S,D
137,125,0.014823,19.858,50,32,0,0,0,0,G,E
139,117,0.014807,9.7421,25,24,0,0,0,0,N,R
141,107,0.014794,6.9875,22,19,0,0,0,0,Y,T
132,108,0.014781,9.656,33,33,0,0,0,0,R,E
122,99,0.014765,16.951,25,54,0,0,0,0,N,L
122,104,0.014732,20.752,25,52,0,0,0,0,N,A
129,97,0.014719,8.4091,63,20,0,0,0,0,W,V
117,99,0.014713,8.3898,24,54,0,0,0,0,R,L
118,102,0.014703,7.3937,36,47,0,0,0,0,F,Y
125,103,0.014693,17.901,32,20,0,0,0,0,E,E
137,113,0.014674,11.267,50,25,0,0,0,0,G,K
138,121,0.014672,10.205,19,41,0,0,0,0,K,I
111,105,0.014605,6.1042,44,18,0,0,0,0,S,R
131,122,0.014594,8.9424,42,25,0,0,0,0,A,N
130,104,0.014578,12.717,19,52,0,0,0,0,E,A
121,109,0.014561,13.313,41,60,0,0,0,0,I,D
141,118,0.014548,7.6881,22,36,0,0,0,0,Y,F
134,101,0.014521,14.245,13,54,0,0,0,0,I,D
136,127,0.014519,18.347,15,30,0,0,0,0,T,D
131,106,0.014518,11.501,42,14,0,0,0,0,A,T
126,104,0.0145,16.384,19,52,0,0,0,0,G,A
113,107,0.014495,14.973,25,19,0,0,0,0,K,T
135,114,0.014455,9.1886,13,35,0,0,0,0,A,K
129,99,0.014446,9.9283,63,54,0,0,0,0,W,L
137,99,0.014443,16.38,50,54,0,0,0,0,G,L
141,99,0.01443,12.628,22,54,0,0,0,0,Y,L
125,118,0.014382,14.43,32,36,999,0,0,0,E,F
110,102,0.01438,3.2131,79,47,0,0,0,0,L,Y
144,123,0.014377,10.911,29,28,0,0,0,0,S,N
126,113,0.014366,18.825,19,25,0,0,0,0,G,K
132,116,0.014353,6.7247,33,52,0,0,0,0,R,E
126,118,0.014348,14.127,19,36,0,0,0,0,G,F
123,104,0.014346,21.745,28,52,0,0,0,0,N,A
120,99,0.014306,10.448,45,54,0,0,0,0,I,L
130,111,0.014298,11.06,19,44,0,0,0,0,E,S
124,111,0.014295,16.531,19,44,0,0,0,0,T,S
135,99,0.01425,12.934,13,54,0,0,0,0,A,L
114,97,0.014249,5.7721,35,20,0,0,0,0,K,V
123,100,0.014248,20.603,28,61,0,0,0,0,N,Y
132,102,0.014226,11.826,33,47,0,0,0,0,R,Y
124,102,0.014208,14.421,19,47,0,0,0,0,T,Y
143,130,0.014198,7.678,89,19,0,0,0,0,P,E
106,99,0.014179,17.49,14,54,0,0,0,0,T,L
138,117,0.014136,7.5037,19,24,0,0,0,0,K,R
139,115,0.014123,15.234,25,83,0,0,0,0,N,G
126,99,0.014121,14.079,19,54,0,0,0,0,G,L
129,103,0.014037,12.403,63,20,0,0,0,0,W,E
131,107,0.014003,10.616,42,19,0,0,0,0,A,T
130,116,0.014,11.778,19,52,0,0,0,0,E,E
137,124,0.013964,16.711,50,19,0,0,0,0,G,T
135,107,0.013931,16.51,13,19,0,0,0,0,A,T
130,97,0.013928,11.149,19,20,0,0,0,0,E,V
132,113,0.013928,10.84,33,25,0,0,0,0,R,K
126,117,0.013895,17.359,19,24,999,0,0,0,G,R
132,114,0.01388,12.95,33,35,0,0,0,0,R,K
142,122,0.013853,11.383,34,25,0,0,0,0,I,N
133,115,0.01385,8.4639,16,83,0,0,0,0,S,G
137,121,0.013849,11.491,50,41,0,0,0,0,G,I
117,111,0.013846,8.9232,24,44,0,0,0,0,R,S
139,125,0.013824,14.831,25,32,0,0,0,0,N,E
134,112,0.013818,8.6956,13,56,0,0,0,0,I,F
144,133,0.013803,13.715,29,16,0,0,0,0,S,S
139,129,0.0138,7.6648,25,63,0,0,0,0,N,W
112,105,0.013768,8.6025,56,18,0,0,0,0,F,R
139,120,0.013766,8.32,25,45,0,0,0,0,N,I
125,113,0.013752,19.714,32,25,0,0,0,0,E,K
121,105,0.013716,17.921,41,18,0,0,0,0,I,R
120,105,0.013708,15.202,45,18,0,0,0,0,I,R
133,104,0.013705,11.895,16,52,0,0,0,0,S,A
135,101,0.013681,11.759,13,54,0,0,0,0,A,D
129,104,0.013666,11.266,63,52,0,0,0,0,W,A
132,103,0.013652,14.678,33,20,0,0,0,0,R,E
139,109,0.013646,5.4362,25,60,0,0,0,0,N,D
142,121,0.013635,8.5713,34,41,0,0,0,0,I,I
111,98,0.013627,8.1869,44,70,0,0,0,0,S,A
126,107,0.01362,17.194,19,19,0,0,0,0,G,T
131,114,0.013617,12.676,42,35,0,0,0,0,A,K
118,106,0.013585,12.917,36,14,0,0,0,0,F,T
118,105,0.013551,12.493,36,18,0,0,0,0,F,R
112,101,0.013534,3.5941,56,54,0,0,0,0,F,D
113,97,0.013514,6.4514,25,20,0,0,0,0,K,V
139,101,0.013508,15,25,54,0,0,0,0,N,D
140,133,0.013506,6.2836,90,16,0,0,0,0,G,S
126,102,0.013498,12.316,19,47,0,0,0,0,G,Y
120,112,0.013468,8.4629,45,56,0,0,0,0,I,F
125,111,0.01346,17.523,32,44,0,0,0,0,E,S
127,107,0.01346,14.468,30,19,0,0,0,0,D,T
137,130,0.013449,9.5688,50,19,0,0,0,0,G,E
124,112,0.013421,13.352,19,56,0,0,0,0,T,F
121,101,0.01341,18.765,41,54,0,0,0,0,I,D
126,101,0.0134,17.045,19,54,0,0,0,0,G,D
141,111,0.013397,5.8633,22,44,0,0,0,0,Y,S
129,101,0.013375,13.667,63,54,0,0,0,0,W,D
138,125,0.013344,17.119,19,32,0,0,0,0,K,E
127,99,0.013334,12.102,30,54,0,0,0,0,D,L
114,104,0.013312,11.28,35,52,0,0,0,0,K,A
127,113,0.013279,15.658,30,25,0,0,0,0,D,K
133,99,0.013247,12.101,16,54,0,0,0,0,S,L
116,101,0.01322,7.2715,52,54,0,0,0,0,E,D
142,135,0.013187,11.512,34,13,0,0,0,0,I,A
116,106,0.013186,13.923,52,14,0,0,0,0,E,T
141,104,0.013155,6.39,22,52,0,0,0,0,Y,A
125,100,0.013124,14.915,32,61,0,0,0,0,E,Y
130,101,0.013124,15.452,19,54,0,0,0,0,E,D
124,116,0.013123,15.483,19,52,0,0,0,0,T,E
107,99,0.013105,19.623,19,54,0,0,0,0,T,L
114,108,0.013075,16.654,35,33,0,0,0,0,K,E
132,126,0.013071,14.443,33,19,999,0,0,0,R,G
133,107,0.01307,13.01,16,19,0,0,0,0,S,T
108,97,0.013025,16.548,33,20,0,0,0,0,E,V
104,98,0.013013,11.737,52,70,0,0,0,0,A,A
142,117,0.012988,7.8091,34,24,0,0,0,0,I,R
109,99,0.012959,14.591,60,54,0,0,0,0,D,L
138,114,0.012954,13.819,19,35,0,0,0,0,K,K
144,116,0.012949,11.338,29,52,0,0,0,0,S,E
127,115,0.012948,16.858,30,83,0,0,0,0,D,G
115,109,0.01293,15.588,83,60,0,0,0,0,G,D
136,114,0.012908,10.946,15,35,0,0,0,0,T,K
144,126,0.012888,4.1179,29,19,0,0,0,0,S,G
136,110,0.012862,5.2425,15,79,0,0,0,0,T,L
137,102,0.01286,13.84,50,47,0,0,0,0,G,Y
139,112,0.012825,9.2278,25,56,0,0,0,0,N,F
134,99,0.012824,12.871,13,54,0,0,0,0,I,L
119,104,0.012795,15.377,18,52,0,0,0,0,Q,A
135,129,0.012771,14.484,13,63,999,0,0,0,A,W
133,100,0.012753,11.159,16,61,0,0,0,0,S,Y
144,107,0.012748,15.151,29,19,0,0,0,0,S,T
121,104,0.012746,17.309,41,52,0,0,0,0,I,A
128,111,0.012697,10.932,96,44,0,0,0,0,W,S
119,97,0.012681,7.5563,18,20,0,0,0,0,Q,V
108,100,0.012675,15.024,33,61,0,0,0,0,E,Y
123,116,0.012656,18.456,28,52,999,0,0,0,N,E
134,100,0.012654,13.018,13,61,0,0,0,0,I,Y
137,116,0.012634,6.4322,50,52,0,0,0,0,G,E
137,123,0.012621,17.823,50,28,0,0,0,0,G,N
138,129,0.012606,9.5497,19,63,0,0,0,0,K,W
116,99,0.012596,6.1487,52,54,0,0,0,0,E,L
113,99,0.012577,6.0429,25,54,0,0,0,0,K,L
120,110,0.012554,7.6925,45,79,0,0,0,0,I,L
129,111,0.012551,10.168,63,44,0,0,0,0,W,S
139,131,0.012525,3.1325,25,42,0,0,0,0,N,A
123,111,0.012505,20.292,28,44,0,0,0,0,N,S
142,103,0.012489,8.7511,34,20,0,0,0,0,I,E
138,109,0.012474,7.5325,19,60,0,0,0,0,K,D
143,136,0.012458,13.873,89,15,999,0,0,0,P,T
117,107,0.012453,16.82,24,19,0,0,0,0,R,T
122,111,0.012448,18.666,25,44,0,0,0,0,N,S
144,100,0.012442,7.7112,29,61,0,0,0,0,S,Y
126,111,0.012414,17.036,19,44,0,0,0,0,G,S
119,110,0.01239,7.0933,18,79,0,0,0,0,Q,L
141,101,0.012382,10.619,22,54,0,0,0,0,Y,D
125,101,0.012375,18.769,32,54,0,0,0,0,E,D
132,104,0.012339,13.15,33,52,0,0,0,0,R,A
144,122,0.012331,10.643,29,25,0,0,0,0,S,N
131,115,0.012325,12.095,42,83,0,0,0,0,A,G
138,107,0.012319,9.3638,19,19,0,0,0,0,K,T
130,102,0.012318,10.835,19,47,0,0,0,0,E,Y
130,110,0.012295,6.6897,19,79,0,0,0,0,E,L
105,97,0.01229,16.438,18,20,0,0,0,0,R,V
110,103,0.012285,4.7161,79,20,0,0,0,0,L,E
137,131,0.012283,6.8656,50,42,0,0,0,0,G,A
120,97,0.012264,7.0008,45,20,0,0,0,0,I,V
125,98,0.012259,15.808,32,70,0,0,0,0,E,A
133,120,0.012243,7.554,16,45,0,0,0,0,S,I
120,108,0.012233,11.711,45,33,0,0,0,0,I,E
136,111,0.012228,6.1221,15,44,0,0,0,0,T,S
112,99,0.012224,5.5073,56,54,0,0,0,0,F,L
143,101,0.012214,7.6475,89,54,0,0,0,0,P,D
131,105,0.012198,12.644,42,18,0,0,0,0,A,R
137,127,0.012162,19.019,50,30,0,0,0,0,G,D
130,120,0.012144,3.6939,19,45,0,0,0,0,E,I
116,108,0.012139,12.724,52,33,0,0,0,0,E,E
144,114,0.012117,12.726,29,35,0,0,0,0,S,K
132,100,0.012092,13.142,33,61,0,0,0,0,R,Y
122,97,0.01209,12.114,25,20,0,0,0,0,N,V
132,99,0.012086,12.806,33,54,0,0,0,0,R,L
136,121,0.012071,14.289,15,41,0,0,0,0,T,I
111,99,0.01207,11.053,44,54,0,0,0,0,S,L
118,107,0.012066,13.409,36,19,0,0,0,0,F,T
136,125,0.012048,20.792,15,32,0,0,0,0,T,E
121,103,0.01204,18.925,41,20,0,0,0,0,I,E
132,97,0.012031,9.1223,33,20,0,0,0,0,R,V
135,128,0.011973,18.031,13,96,999,0,0,0,A,W
144,104,0.011972,12.164,29,52,0,0,0,0,S,A
144,105,0.011972,10.751,29,18,0,0,0,0,S,R
105,99,0.011964,14.225,18,54,0,0,0,0,R,L
124,110,0.011924,12.722,19,79,0,0,0,0,T,L
141,97,0.011906,12.383,22,20,0,0,0,0,Y,V
137,122,0.011904,15.445,50,25,0,0,0,0,G,N
118,103,0.011853,10.024,36,20,0,0,0,0,F,E
121,111,0.011829,15.196,41,44,0,0,0,0,I,S
116,110,0.011823,5.7955,52,79,0,0,0,0,E,L
120,106,0.011812,14.941,45,14,0,0,0,0,I,T
136,99,0.011811,14.566,15,54,0,0,0,0,T,L
144,138,0.011808,14.471,29,19,999,0,0,0,S,K
127,111,0.011806,13.407,30,44,0,0,0,0,D,S
139,99,0.011806,16.272,25,54,0,0,0,0,N,L
109,97,0.011796,14.712,60,20,0,0,0,0,D,V
138,100,0.011786,13.906,19,61,0,0,0,0,K,Y
136,108,0.011782,11.718,15,33,0,0,0,0,T,E
131,111,0.011758,8.7012,42,44,0,0,0,0,A,S
116,105,0.011754,13.467,52,18,0,0,0,0,E,R
132,111,0.011749,8.8242,33,44,0,0,0,0,R,S
140,130,0.011684,3.787,90,19,0,0,0,0,G,E
110,98,0.011652,9.058,79,70,0,0,0,0,L,A
123,112,0.011634,17.6,28,56,0,0,0,0,N,F
135,111,0.011585,8.5817,13,44,0,0,0,0,A,S
126,100,0.01156,14.036,19,61,0,0,0,0,G,Y
143,127,0.011542,3.4675,89,30,0,0,0,0,P,D
127,104,0.011528,12.421,30,52,0,0,0,0,D,A
142,108,0.011525,6.0003,34,33,0,0,0,0,I,E
117,98,0.011498,5.111,24,70,0,0,0,0,R,A
141,103,0.011494,7.8634,22,20,0,0,0,0,Y,E
144,113,0.01148,12.638,29,25,0,0,0,0,S,K
141,120,0.011473,7.9289,22,45,0,0,0,0,Y,I
120,113,0.011465,11.804,45,25,0,0,0,0,I,K
140,117,0.011462,10.376,90,24,0,0,0,0,G,R
144,111,0.011437,12.42,29,44,0,0,0,0,S,S
115,102,0.011423,8.4897,83,47,0,0,0,0,G,Y
121,99,0.011414,15.655,41,54,0,0,0,0,I,L
131,103,0.011406,12.568,42,20,0,0,0,0,A,E
139,110,0.011381,3.7258,25,79,0,0,0,0,N,L
137,104,0.011367,13.685,50,52,0,0,0,0,G,A
113,100,0.011362,3.967,25,61,0,0,0,0,K,Y
135,110,0.011352,8.5647,13,79,0,0,0,0,A,L
129,102,0.011261,8.6601,63,47,0,0,0,0,W,Y
121,112,0.01125,13.051,41,56,0,0,0,0,I,F
119,112,0.011229,10.267,18,56,0,0,0,0,Q,F
131,117,0.011206,7.3473,42,24,0,0,0,0,A,R
137,108,0.011198,11.565,50,33,0,0,0,0,G,E
142,99,0.011154,8.4209,34,54,0,0,0,0,I,L
138,99,0.011097,14.999,19,54,0,0,0,0,K,L
110,101,0.011049,7.8885,79,54,0,0,0,0,L,D
144,108,0.011049,11.691,29,33,0,0,0,0,S,E
144,120,0.011014,7.1253,29,45,0,0,0,0,S,I
137,100,0.010991,15.387,50,61,0,0,0,0,G,Y
127,101,0.010983,12.965,30,54,0,0,0,0,D,D
122,100,0.010947,19.513,25,61,0,0,0,0,N,Y
127,98,0.010944,12.754,30,70,0,0,0,0,D,A
133,97,0.010916,9.5537,16,20,0,0,0,0,S,V
129,98,0.010906,9.9186,63,70,0,0,0,0,W,A
138,97,0.010899,12.896,19,20,0,0,0,0,K,V
137,126,0.010866,20.784,50,19,0,0,0,0,G,G
132,101,0.01086,14.513,33,54,0,0,0,0,R,D
126,116,0.010836,17.497,19,52,0,0,0,0,G,E
143,108,0.010812,9.0117,89,33,0,0,0,0,P,E
144,119,0.010811,11.048,29,18,0,0,0,0,S,Q
140,108,0.010795,3.4084,90,33,0,0,0,0,G,E
137,107,0.010774,12.461,50,19,0,0,0,0,G,T
115,97,0.010773,3.8702,83,20,0,0,0,0,G,V
123,97,0.010772,15.675,28,20,0,0,0,0,N,V
120,100,0.010771,11.915,45,61,0,0,0,0,I,Y
115,107,0.010731,20.228,83,19,0,0,0,0,G,T
142,136,0.010715,9.795,34,15,999,0,0,0,I,T
142,105,0.010714,8.3967,34,18,0,0,0,0,I,R
131,109,0.010611,7.6027,42,60,0,0,0,0,A,D
109,101,0.010607,10.517,60,54,0,0,0,0,D,D
135,97,0.01058,10.166,13,20,0,0,0,0,A,V
142,132,0.010558,6.5598,34,33,0,0,0,0,I,R
141,116,0.010549,10.451,22,52,0,0,0,0,Y,E
132,112,0.010543,8.5658,33,56,0,0,0,0,R,F
128,105,0.010538,6.9473,96,18,0,0,0,0,W,R
114,102,0.010468,5.4276,35,47,0,0,0,0,K,Y
144,131,0.010464,8.7397,29,42,0,0,0,0,S,A
131,104,0.010459,11.336,42,52,0,0,0,0,A,A
127,97,0.01044,12.667,30,20,0,0,0,0,D,V
137,115,0.010415,12.285,50,83,0,0,0,0,G,G
139,98,0.010405,13.555,25,70,0,0,0,0,N,A
137,103,0.010404,15.165,50,20,0,0,0,0,G,E
107,100,0.010398,16.858,19,61,0,0,0,0,T,Y
118,108,0.01038,10.84,36,33,0,0,0,0,F,E
144,121,0.010371,9.8912,29,41,0,0,0,0,S,I
124,115,0.010345,18.628,19,83,999,0,0,0,T,G
117,101,0.010336,10.565,24,54,0,0,0,0,R,D
133,102,0.01033,10.466,16,47,0,0,0,0,S,Y
118,101,0.010313,8.4168,36,54,0,0,0,0,F,D
130,115,0.010294,15.315,19,83,0,0,0,0,E,G
137,110,0.010283,6.3935,50,79,0,0,0,0,G,L
108,98,0.010278,14.847,33,70,0,0,0,0,E,A
107,101,0.010258,15.101,19,54,0,0,0,0,T,D
137,111,0.010254,9.0686,50,44,0,0,0,0,G,S
140,121,0.010252,8.0535,90,41,0,0,0,0,G,I
142,98,0.01025,7.013,34,70,0,0,0,0,I,A
129,100,0.010245,11.746,63,61,0,0,0,0,W,Y
111,101,0.010235,6.8811,44,54,0,0,0,0,S,D
136,109,0.010202,9.5609,15,60,0,0,0,0,T,D
123,110,0.010184,15.781,28,79,0,0,0,0,N,L
137,129,0.010154,12.709,50,63,0,0,0,0,G,W
144,103,0.01007,11.872,29,20,0,0,0,0,S,E
107,97,0.010065,19.586,19,20,0,0,0,0,T,V
139,116,0.010059,8.7,25,52,0,0,0,0,N,E
110,100,0.010031,8.9487,79,61,0,0,0,0,L,Y
106,98,0.01002,15.697,14,70,0,0,0,0,T,A
121,102,0.010018,15.357,41,47,0,0,0,0,I,Y
127,110,0.010016,11.134,30,79,0,0,0,0,D,L
142,125,0.010013,8.1607,34,32,0,0,0,0,I,E
136,107,0.010006,12.203,15,19,0,0,0,0,T,T
140,103,0.0099875,10.769,90,20,0,0,0,0,G,E
134,102,0.0099567,13.423,13,47,0,0,0,0,I,Y
115,106,0.0099454,18.717,83,14,0,0,0,0,G,T
143,117,0.0099404,11.651,89,24,0,0,0,0,P,R
144,99,0.0099082,6.8391,29,54,0,0,0,0,S,L
122,116,0.0098988,15.299,25,52,999,0,0,0,N,E
136,128,0.0098626,16.564,15,96,999,0,0,0,T,W
142,107,0.0098445,9.7943,34,19,0,0,0,0,I,T
111,97,0.0098377,11.356,44,20,0,0,0,0,S,V
125,116,0.0098356,17.745,32,52,0,0,0,0,E,E
137,114,0.0098113,14.161,50,35,0,0,0,0,G,K
136,102,0.009783,10.602,15,47,0,0,0,0,T,Y
134,128,0.0097797,15.799,13,96,999,0,0,0,I,W
142,126,0.0097713,7.098,34,19,0,0,0,0,I,G
123,101,0.0097678,23.1,28,54,0,0,0,0,N,D
140,122,0.0097424,11.666,90,25,0,0,0,0,G,N
138,118,0.0097369,6.0603,19,36,0,0,0,0,K,F
115,105,0.0097354,16.779,83,18,0,0,0,0,G,R
141,102,0.0097322,4.5152,22,47,0,0,0,0,Y,Y
129,110,0.0097283,7.1296,63,79,0,0,0,0,W,L
144,137,0.0097273,17.726,29,50,0,0,0,0,S,G
118,110,0.0097218,3.9278,36,79,0,0,0,0,F,L
144,135,0.0096989,17.125,29,13,0,0,0,0,S,A
138,110,0.0096735,3.6469,19,79,0,0,0,0,K,L
112,103,0.0096637,5.0407,56,20,0,0,0,0,F,E
144,136,0.0096137,16.797,29,15,0,0,0,0,S,T
121,113,0.0096008,16.486,41,25,0,0,0,0,I,K
135,115,0.0095895,7.2997,13,83,0,0,0,0,A,G
144,101,0.0095385,11.252,29,54,0,0,0,0,S,D
127,120,0.0095354,9.6283,30,45,0,0,0,0,D,I
137,120,0.0095316,11.364,50,45,0,0,0,0,G,I
139,97,0.009514,14.461,25,20,0,0,0,0,N,V
119,102,0.009481,13.233,18,47,0,0,0,0,Q,Y
125,110,0.0094384,14.43,32,79,0,0,0,0,E,L
121,110,0.0094128,10.297,41,79,0,0,0,0,I,L
144,97,0.0094001,7.5133,29,20,0,0,0,0,S,V
117,104,0.0093998,14.687,24,52,0,0,0,0,R,A
120,104,0.0093894,14.434,45,52,0,0,0,0,I,A
122,112,0.0093681,16.081,25,56,0,0,0,0,N,F
136,120,0.0093578,12.447,15,45,0,0,0,0,T,I
121,97,0.0092602,11.458,41,20,0,0,0,0,I,V
138,128,0.0092592,13.246,19,96,0,0,0,0,K,W
140,114,0.0092512,14.44,90,35,0,0,0,0,G,K
143,119,0.0092168,10.922,89,18,0,0,0,0,P,Q
144,117,0.0091812,12.332,29,24,0,0,0,0,S,R
134,120,0.0091579,7.6183,13,45,0,0,0,0,I,I
136,115,0.0091217,10.079,15,83,0,0,0,0,T,G
113,104,0.0090827,8.9664,25,52,0,0,0,0,K,A
118,99,0.0090737,6.3877,36,54,0,0,0,0,F,L
120,114,0.0090735,13.341,45,35,999,0,0,0,I,K
126,97,0.0090322,14.486,19,20,0,0,0,0,G,V
113,98,0.0089927,3.2903,25,70,0,0,0,0,K,A
140,99,0.0089369,13.862,90,54,0,0,0,0,G,L
121,98,0.0089206,13.343,41,70,0,0,0,0,I,A
143,103,0.0089138,7.2755,89,20,0,0,0,0,P,E
142,119,0.0088517,6.6279,34,18,0,0,0,0,I,Q
139,118,0.0088301,7.6881,25,36,0,0,0,0,N,F
137,101,0.0087975,15.776,50,54,0,0,0,0,G,D
139,102,0.0087808,10.417,25,47,0,0,0,0,N,Y
144,132,0.0087393,11.832,29,33,0,0,0,0,S,R
121,100,0.0087163,17.058,41,61,0,0,0,0,I,Y
117,102,0.0087127,11.343,24,47,0,0,0,0,R,Y
140,100,0.0087079,12.946,90,61,0,0,0,0,G,Y
116,97,0.0086654,3.4574,52,20,0,0,0,0,E,V
138,115,0.0086578,13.074,19,83,0,0,0,0,K,G
116,104,0.0086336,10.466,52,52,0,0,0,0,E,A
135,104,0.008625,14.914,13,52,0,0,0,0,A,A
132,110,0.0085584,4.7095,33,79,0,0,0,0,R,L
138,131,0.0085531,3.9741,19,42,0,0,0,0,K,A
134,110,0.008552,7.0913,13,79,0,0,0,0,I,L
126,115,0.0085356,19.657,19,83,0,0,0,0,G,G
143,125,0.0085352,8.9174,89,32,0,0,0,0,P,E
128,106,0.0085282,7.0649,96,14,0,0,0,0,W,T
127,116,0.0085033,15.27,30,52,0,0,0,0,D,E
116,107,0.0085001,13.988,52,19,0,0,0,0,E,T
140,106,0.0084564,7.749,90,14,0,0,0,0,G,T
138,120,0.0084264,9.4621,19,45,0,0,0,0,K,I
119,98,0.0084229,9.1474,18,70,0,0,0,0,Q,A
140,107,0.0084194,6.7198,90,19,0,0,0,0,G,T
135,120,0.0083849,11.01,13,45,0,0,0,0,A,I
135,98,0.0083721,9.7615,13,70,0,0,0,0,A,A
142,104,0.0083626,8.1106,34,52,0,0,0,0,I,A
129,115,0.0083584,14.383,63,83,0,0,0,0,W,G
126,112,0.0083573,13.196,19,56,0,0,0,0,G,F
135,102,0.0082886,12.377,13,47,0,0,0,0,A,Y
140,127,0.0082773,9.9617,90,30,0,0,0,0,G,D
111,100,0.0082397,7.8105,44,61,0,0,0,0,S,Y
112,100,0.0082247,3.2418,56,61,0,0,0,0,F,Y
143,126,0.0082217,7.1438,89,19,0,0,0,0,P,G
103,97,0.0082167,13.293,20,20,0,0,0,0,E,V
143,122,0.0082085,13.327,89,25,0,0,0,0,P,N
109,98,0.0081941,12.437,60,70,0,0,0,0,D,A
120,107,0.0081619,15.735,45,19,0,0,0,0,I,T
143,129,0.0081617,5.1293,89,63,0,0,0,0,P,W
116,103,0.0081596,9.2288,52,20,0,0,0,0,E,E
142,113,0.0081401,8.8184,34,25,0,0,0,0,I,K
144,115,0.0081196,12.806,29,83,0,0,0,0,S,G
137,118,0.0080708,8.1624,50,36,0,0,0,0,G,F
130,98,0.0080694,12.064,19,70,0,0,0,0,E,A
143,105,0.008044,6.4632,89,18,0,0,0,0,P,R
131,97,0.0080389,9.2024,42,20,0,0,0,0,A,V
115,108,0.0080273,18.249,83,33,0,0,0,0,G,E
139,128,0.0079783,11.016,25,96,0,0,0,0,N,W
142,101,0.0079709,9.4304,34,54,0,0,0,0,I,D
132,115,0.0079397,10.622,33,83,0,0,0,0,R,G
137,97,0.0078844,13.641,50,20,0,0,0,0,G,V
123,98,0.0078802,17.907,28,70,0,0,0,0,N,A
118,111,0.0078525,5.7172,36,44,0,0,0,0,F,S
138,116,0.0078414,6.7126,19,52,0,0,0,0,K,E
110,99,0.0078293,11.854,79,54,0,0,0,0,L,L
136,100,0.0077989,12.626,15,61,0,0,0,0,T,Y
117,110,0.0077907,7.0925,24,79,0,0,0,0,R,L
120,103,0.007789,14.898,45,20,0,0,0,0,I,E
139,104,0.007759,9.1579,25,52,0,0,0,0,N,A
112,97,0.0077348,6.7029,56,20,0,0,0,0,F,V
140,125,0.0077328,11.366,90,32,0,0,0,0,G,E
142,116,0.0077211,8.0052,34,52,0,0,0,0,I,E
144,118,0.007714,8.9724,29,36,0,0,0,0,S,F
120,109,0.0077084,11.562,45,60,0,0,0,0,I,D
116,100,0.0076992,6.7897,52,61,0,0,0,0,E,Y
121,115,0.0076477,16.321,41,83,999,0,0,0,I,G
142,111,0.0076471,6.3247,34,44,0,0,0,0,I,S
143,124,0.0076428,9.4506,89,19,0,0,0,0,P,T
122,110,0.007641,13.811,25,79,0,0,0,0,N,L
140,119,0.0075834,7.0635,90,18,0,0,0,0,G,Q
128,119,0.0075644,10.423,96,18,0,0,0,0,W,Q
132,98,0.0075528,9.6905,33,70,0,0,0,0,R,A
105,98,0.0075486,13.858,18,70,0,0,0,0,R,A
115,104,0.0075186,14.176,83,52,0,0,0,0,G,A
115,103,0.0074619,11.813,83,20,0,0,0,0,G,E
131,100,0.0074015,11.415,42,61,0,0,0,0,A,Y
116,109,0.007392,10.247,52,60,0,0,0,0,E,D
118,97,0.007373,4.4461,36,20,0,0,0,0,F,V
143,114,0.0073539,11.02,89,35,0,0,0,0,P,K
143,133,0.0073248,11.953,89,16,0,0,0,0,P,S
138,112,0.0073005,8.428,19,56,0,0,0,0,K,F
143,106,0.007291,9.1899,89,14,0,0,0,0,P,T
138,101,0.0072847,14.423,19,54,0,0,0,0,K,D
134,98,0.0072607,9.5675,13,70,0,0,0,0,I,A
136,97,0.0072591,12.302,15,20,0,0,0,0,T,V
131,101,0.0072568,12.63,42,54,0,0,0,0,A,D
143,107,0.0071801,11.823,89,19,0,0,0,0,P,T
140,113,0.0071417,11.996,90,25,0,0,0,0,G,K
138,102,0.0070985,11.354,19,47,0,0,0,0,K,Y
131,113,0.0070869,10.77,42,25,0,0,0,0,A,K
141,115,0.0070667,14.426,22,83,0,0,0,0,Y,G
141,110,0.0070263,2.9091,22,79,0,0,0,0,Y,L
120,101,0.0070209,13.829,45,54,0,0,0,0,I,D
126,98,0.0070153,15.33,19,70,0,0,0,0,G,A
136,112,0.0070106,7.1871,15,56,0,0,0,0,T,F
143,135,0.0069753,15.506,89,13,0,0,0,0,P,A
122,115,0.0069656,17.954,25,83,999,0,0,0,N,G
110,97,0.006946,10.566,79,20,0,0,0,0,L,V
128,108,0.006915,8.1314,96,33,0,0,0,0,W,E
120,111,0.0068583,11.704,45,44,0,0,0,0,I,S
133,98,0.0067477,8.7802,16,70,0,0,0,0,S,A
143,111,0.0067106,8.2483,89,44,0,0,0,0,P,S
126,110,0.0067005,14.386,19,79,0,0,0,0,G,L
128,103,0.0065625,9.3683,96,20,0,0,0,0,W,E
137,98,0.0065201,13.093,50,70,0,0,0,0,G,A
140,111,0.0064928,7.0245,90,44,0,0,0,0,G,S
125,115,0.0063891,20.161,32,83,0,0,0,0,E,G
122,101,0.0063849,21.679,25,54,0,0,0,0,N,D
124,98,0.0063503,14.471,19,70,0,0,0,0,T,A
136,101,0.0062715,12.016,15,54,0,0,0,0,T,D
115,101,0.0062423,5.9841,83,54,0,0,0,0,G,D
128,107,0.0061357,10.621,96,19,0,0,0,0,W,T
122,102,0.0060012,18.222,25,47,0,0,0,0,N,Y
114,98,0.0059928,3.8123,35,70,0,0,0,0,K,A
140,129,0.0059724,3.828,90,63,0,0,0,0,G,W
136,104,0.0059676,11.521,15,52,0,0,0,0,T,A
104,97,0.0059644,14.971,52,20,0,0,0,0,A,V
140,105,0.0058382,9.6416,90,18,0,0,0,0,G,R
140,126,0.0058164,11.964,90,19,0,0,0,0,G,G
143,132,0.0057809,10.698,89,33,0,0,0,0,P,R
129,116,0.0057589,11.549,63,52,0,0,0,0,W,E
116,102,0.0057569,7.4341,52,47,0,0,0,0,E,Y
128,117,0.0057375,14.537,96,24,0,0,0,0,W,R
110,104,0.0057142,3.7712,79,52,0,0,0,0,L,A
115,99,0.005643,5.0631,83,54,0,0,0,0,G,L
143,134,0.0055494,14.117,89,13,0,0,0,0,P,I
136,98,0.0054816,11.156,15,70,0,0,0,0,T,A
115,100,0.0054694,5.4065,83,61,0,0,0,0,G,Y
128,113,0.0052762,14.724,96,25,0,0,0,0,W,K
107,98,0.0052278,17.294,19,70,0,0,0,0,T,A
138,98,0.0049755,11.932,19,70,0,0,0,0,K,A
143,123,0.0049589,13.647,89,28,0,0,0,0,P,N
143,113,0.0046155,10.148,89,25,0,0,0,0,P,K
140,124,0.0045381,9.5353,90,19,0,0,0,0,G,T
122,98,0.0041217,14.984,25,70,0,0,0,0,N,A
140,123,0.0036207,13.007,90,28,0,0,0,0,G,N
