39 F 40 C 0.134766 0.0296532 
39 F 41 L 0.219668 0.0540984 
39 F 42 E 0.226405 0.0468694 
39 F 43 P 0.167923 0.0181878 
39 F 44 P 0.185701 0.0304079 
39 F 45 Y 0.155355 0.0122659 
39 F 46 T 0.147449 0.01638 
39 F 47 G 0.134129 0.0251649 
39 F 48 P 0.119955 0.0185749 
39 F 49 C 0.097698 0.0284489 
39 F 50 K 0.0887489 0.014002 
39 F 51 A 0.0895757 0.0144598 
39 F 52 R 0.0866537 0.0171357 
39 F 53 I 0.104433 0.0152165 
39 F 54 I 0.0832516 0.0154126 
39 F 55 R 0.0799242 0.0109971 
39 F 56 Y 0.0383185 0.012167 
39 F 57 F 0.0637373 0.0132886 
39 F 58 Y 0.0280712 0.0143728 
39 F 59 N 0.0443066 0.00860369 
39 F 60 A 0.0689531 0.019055 
39 F 61 K 0.0627414 0.0158703 
39 F 62 A 0.0546174 0.0175347 
39 F 63 G 0.0630612 0.0188886 
39 F 64 L 0.0433316 0.0123153 
39 F 65 C 0.0052522 0.036726 
39 F 66 Q 0.0381518 0.0131907 
39 F 67 T 0.05896 0.0150251 
39 F 68 F 0.0706319 0.011256 
39 F 69 V 0.0626151 0.0158058 
39 F 70 Y 0.0710359 0.0100693 
39 F 71 G 0.0872824 0.0169044 
39 F 72 G 0.0503815 0.00795967 
39 F 73 C 0.0776851 0.0110132 
39 F 74 R 0.0722154 0.0194772 
39 F 75 A 0.0719902 0.0115857 
39 F 76 K 0.068731 0.00981216 
39 F 77 R 0.106863 0.0540288 
39 F 78 N 0.0369351 0.0179677 
39 F 79 N 0.100701 0.021075 
39 F 80 F 0.0351889 0.0280064 
39 F 81 K 0.088448 0.0182136 
39 F 82 S 0.0409763 0.0101785 
39 F 83 A 0.047769 0.0112059 
39 F 84 E 0.0407201 0.0093365 
39 F 85 D 0.0456416 0.0107836 
39 F 86 C 0.00385347 0.039068 
39 F 87 M 0.0537564 0.0162789 
39 F 88 R 0.0633231 0.0159366 
39 F 89 T 0.11293 0.0426335 
39 F 90 C 0.00214063 0.0229322 
39 F 91 G 0.0253658 0.0107809 
40 C 41 L 0.382523 0.269665 
40 C 42 E 0.349128 0.225739 
40 C 43 P 0.311536 0.171628 
40 C 44 P 0.289151 0.100256 
40 C 45 Y 0.244087 0.0511677 
40 C 46 T 0.204088 0.013658 
40 C 47 G 0.162776 0.0333507 
40 C 48 P 0.126436 0.00591203 
40 C 49 C 0.0730732 0.0596442 
40 C 50 K 0.0799119 0.00449268 
40 C 51 A 0.071606 0.00603862 
40 C 52 R 0.0639512 0.00351523 
40 C 53 I 0.0717052 0.00447459 
40 C 54 I 0.0485508 0.00329765 
40 C 55 R 0.0392313 0.0118911 
40 C 56 Y 0.025714 0.0356665 
40 C 57 F 0.0324665 0.0194511 
40 C 58 Y 0.0163492 0.0659313 
40 C 59 N 0.0180364 0.0390693 
40 C 60 A 0.0100022 0.00628104 
40 C 61 K 0.00767632 0.00570971 
40 C 62 A 0.00588536 0.00685487 
40 C 63 G 0.00671526 0.00636433 
40 C 64 L 0.00496732 0.0038246 
40 C 65 C 0.00322609 0.314054 
40 C 66 Q 0.00495308 0.00515701 
40 C 67 T 0.0067605 0.00339972 
40 C 68 F 0.0270219 0.0109291 
40 C 69 V 0.0110114 0.00400917 
40 C 70 Y 0.0242486 0.00772453 
40 C 71 G 0.0257501 0.00485538 
40 C 72 G 0.0103372 0.014276 
40 C 73 C 0.00766804 0.025263 
40 C 74 R 0.0115075 0.00322283 
40 C 75 A 0.0182381 0.00457222 
40 C 76 K 0.0216084 0.0163389 
40 C 77 R 0.0150755 0.00884044 
40 C 78 N 0.00528489 0.112115 
40 C 79 N 0.0239884 0.00572509 
40 C 80 F 0.00489854 0.122606 
40 C 81 K 0.0185729 0.00687399 
40 C 82 S 0.0111102 0.0235321 
40 C 83 A 0.00741385 0.00499585 
40 C 84 E 0.00545118 0.00401837 
40 C 85 D 0.00723046 0.00840044 
40 C 86 C 0.00177125 0.250523 
40 C 87 M 0.00978272 0.0058486 
40 C 88 R 0.00898197 0.00783814 
40 C 89 T 0.00821016 0.00892596 
40 C 90 C 0.000310725 0.209664 
40 C 91 G 0.00306422 0.010369 
41 L 42 E 0.486095 0.235331 
41 L 43 P 0.402553 0.127138 
41 L 44 P 0.39009 0.0868794 
41 L 45 Y 0.353208 0.0433982 
41 L 46 T 0.316172 0.0313834 
41 L 47 G 0.259424 0.0148861 
41 L 48 P 0.239568 0.0236169 
41 L 49 C 0.135914 0.0101973 
41 L 50 K 0.210766 0.0261125 
41 L 51 A 0.176872 0.018786 
41 L 52 R 0.159722 0.0198429 
41 L 53 I 0.191401 0.0251389 
41 L 54 I 0.15361 0.0238651 
41 L 55 R 0.149487 0.020051 
41 L 56 Y 0.0687107 0.00875706 
41 L 57 F 0.126697 0.0168908 
41 L 58 Y 0.0553145 0.00993435 
41 L 59 N 0.0866157 0.0108236 
41 L 60 A 0.173125 0.0392843 
41 L 61 K 0.122437 0.0182086 
41 L 62 A 0.108919 0.0200982 
41 L 63 G 0.118851 0.0241888 
41 L 64 L 0.115449 0.0213311 
41 L 65 C 0.00864721 0.0132878 
41 L 66 Q 0.119581 0.0236092 
41 L 67 T 0.11934 0.0191215 
41 L 68 F 0.122613 0.0119573 
41 L 69 V 0.129184 0.021352 
41 L 70 Y 0.120001 0.015364 
41 L 71 G 0.135795 0.0174932 
41 L 72 G 0.10358 0.0138396 
41 L 73 C 0.100796 0.0126751 
41 L 74 R 0.128361 0.0189607 
41 L 75 A 0.115216 0.0120014 
41 L 76 K 0.118475 0.0197594 
41 L 77 R 0.127605 0.0197391 
41 L 78 N 0.0595298 0.0112567 
41 L 79 N 0.137089 0.0138671 
41 L 80 F 0.0233218 0.0133876 
41 L 81 K 0.137335 0.0230042 
41 L 82 S 0.0862354 0.0118151 
41 L 83 A 0.129632 0.0218787 
41 L 84 E 0.111957 0.0185367 
41 L 85 D 0.120009 0.0211897 
41 L 86 C 0.0090235 0.0102628 
41 L 87 M 0.120011 0.019491 
41 L 88 R 0.12637 0.0257808 
41 L 89 T 0.135387 0.0273936 
41 L 90 C 0.00537322 0.0113678 
41 L 91 G 0.0565399 0.0147386 
42 E 43 P 0.425001 0.206924 
42 E 44 P 0.423598 0.144944 
42 E 45 Y 0.385312 0.0768721 
42 E 46 T 0.319285 0.0335721 
42 E 47 G 0.282633 0.0235884 
42 E 48 P 0.242514 0.018739 
42 E 49 C 0.123001 0.00676445 
42 E 50 K 0.194489 0.0198851 
42 E 51 A 0.177822 0.0139571 
42 E 52 R 0.17443 0.0184343 
42 E 53 I 0.178846 0.0179761 
42 E 54 I 0.156716 0.016591 
42 E 55 R 0.167588 0.0224784 
42 E 56 Y 0.0652157 0.0112717 
42 E 57 F 0.106887 0.0157363 
42 E 58 Y 0.0409398 0.0072351 
42 E 59 N 0.0710072 0.00967247 
42 E 60 A 0.148715 0.0231294 
42 E 61 K 0.124967 0.0181972 
42 E 62 A 0.0896521 0.0119828 
42 E 63 G 0.0930953 0.015724 
42 E 64 L 0.0870443 0.0135399 
42 E 65 C 0.00628655 0.00928492 
42 E 66 Q 0.0949827 0.0149544 
42 E 67 T 0.12401 0.0211215 
42 E 68 F 0.137276 0.0124115 
42 E 69 V 0.121857 0.0156753 
42 E 70 Y 0.130672 0.0107673 
42 E 71 G 0.133883 0.014914 
42 E 72 G 0.10745 0.0163669 
42 E 73 C 0.0897128 0.0116112 
42 E 74 R 0.120932 0.0180768 
42 E 75 A 0.124794 0.0139288 
42 E 76 K 0.151468 0.0465094 
42 E 77 R 0.174262 0.0533542 
42 E 78 N 0.0610578 0.0163515 
42 E 79 N 0.15065 0.0208019 
42 E 80 F 0.0573141 0.039742 
42 E 81 K 0.13429 0.0198516 
42 E 82 S 0.0799109 0.00911928 
42 E 83 A 0.117585 0.0192441 
42 E 84 E 0.110805 0.0155996 
42 E 85 D 0.0952552 0.0117497 
42 E 86 C 0.00722285 0.00742295 
42 E 87 M 0.120977 0.0189604 
42 E 88 R 0.108733 0.0145024 
42 E 89 T 0.114107 0.0197188 
42 E 90 C 0.00651177 0.0102322 
42 E 91 G 0.0574062 0.0139724 
43 P 44 P 0.43331 0.234425 
43 P 45 Y 0.361641 0.133513 
43 P 46 T 0.322811 0.0570945 
43 P 47 G 0.230585 0.0166861 
43 P 48 P 0.210891 0.0161388 
43 P 49 C 0.110543 0.00443212 
43 P 50 K 0.181146 0.0206045 
43 P 51 A 0.171757 0.0146223 
43 P 52 R 0.169483 0.0180072 
43 P 53 I 0.170002 0.0189869 
43 P 54 I 0.142405 0.014753 
43 P 55 R 0.132247 0.0165932 
43 P 56 Y 0.0499712 0.00441901 
43 P 57 F 0.0807649 0.00815422 
43 P 58 Y 0.0476005 0.0124838 
43 P 59 N 0.0704062 0.0106623 
43 P 60 A 0.112931 0.0175654 
43 P 61 K 0.112058 0.0175666 
43 P 62 A 0.094933 0.0146735 
43 P 63 G 0.0829411 0.0132865 
43 P 64 L 0.0786474 0.012537 
43 P 65 C 0.00524485 0.0151147 
43 P 66 Q 0.0886143 0.0160255 
43 P 67 T 0.0898549 0.0126911 
43 P 68 F 0.078162 0.00691266 
43 P 69 V 0.0953747 0.0140846 
43 P 70 Y 0.0795903 0.00788778 
43 P 71 G 0.115377 0.0159902 
43 P 72 G 0.0664166 0.00987691 
43 P 73 C 0.0700075 0.00579797 
43 P 74 R 0.0940318 0.0151748 
43 P 75 A 0.0677056 0.0125831 
43 P 76 K 0.0717191 0.00613317 
43 P 77 R 0.102999 0.0152281 
43 P 78 N 0.042584 0.0132184 
43 P 79 N 0.108315 0.0147672 
43 P 80 F 0.0206212 0.014159 
43 P 81 K 0.119063 0.0183048 
43 P 82 S 0.0635892 0.00698613 
43 P 83 A 0.0921494 0.0110052 
43 P 84 E 0.0824739 0.0113832 
43 P 85 D 0.0829716 0.0121505 
43 P 86 C 0.00763367 0.0144705 
43 P 87 M 0.0957576 0.0142954 
43 P 88 R 0.0925207 0.014988 
43 P 89 T 0.088104 0.0157913 
43 P 90 C 0.00339804 0.0108558 
43 P 91 G 0.0422931 0.0107006 
44 P 45 Y 0.421059 0.191068 
44 P 46 T 0.354125 0.0999668 
44 P 47 G 0.300191 0.0354312 
44 P 48 P 0.255109 0.0240602 
44 P 49 C 0.137245 0.00750735 
44 P 50 K 0.198645 0.0171983 
44 P 51 A 0.211074 0.0218647 
44 P 52 R 0.201694 0.021188 
44 P 53 I 0.192274 0.0190107 
44 P 54 I 0.159671 0.0230354 
44 P 55 R 0.166278 0.0164173 
44 P 56 Y 0.0752647 0.00765454 
44 P 57 F 0.219734 0.0952518 
44 P 58 Y 0.0453989 0.00796289 
44 P 59 N 0.0799596 0.0107242 
44 P 60 A 0.134652 0.0294243 
44 P 61 K 0.128489 0.0192142 
44 P 62 A 0.112541 0.0189562 
44 P 63 G 0.086279 0.0121853 
44 P 64 L 0.110136 0.0184072 
44 P 65 C 0.00720777 0.0072656 
44 P 66 Q 0.123359 0.0236118 
44 P 67 T 0.128763 0.0205804 
44 P 68 F 0.148346 0.0192878 
44 P 69 V 0.1423 0.0264223 
44 P 70 Y 0.115244 0.00945396 
44 P 71 G 0.165326 0.0252963 
44 P 72 G 0.0907574 0.0133927 
44 P 73 C 0.101203 0.00789049 
44 P 74 R 0.117711 0.0182857 
44 P 75 A 0.11136 0.0105362 
44 P 76 K 0.132005 0.0157879 
44 P 77 R 0.138564 0.0220674 
44 P 78 N 0.058956 0.00843125 
44 P 79 N 0.165104 0.0314149 
44 P 80 F 0.0233221 0.00658679 
44 P 81 K 0.139611 0.0244606 
44 P 82 S 0.0732391 0.00900695 
44 P 83 A 0.119683 0.022173 
44 P 84 E 0.0893914 0.0112509 
44 P 85 D 0.0863287 0.0120942 
44 P 86 C 0.00728204 0.00944586 
44 P 87 M 0.135718 0.0250266 
44 P 88 R 0.106845 0.0164369 
44 P 89 T 0.104222 0.0173188 
44 P 90 C 0.00497532 0.00930777 
44 P 91 G 0.0530735 0.0125877 
45 Y 46 T 0.383601 0.200176 
45 Y 47 G 0.331452 0.0986107 
45 Y 48 P 0.279551 0.031469 
45 Y 49 C 0.136537 0.0102478 
45 Y 50 K 0.21384 0.0236592 
45 Y 51 A 0.193288 0.0180454 
45 Y 52 R 0.184348 0.0208415 
45 Y 53 I 0.181616 0.0209747 
45 Y 54 I 0.170954 0.0208612 
45 Y 55 R 0.150354 0.0173445 
45 Y 56 Y 0.0707057 0.00717503 
45 Y 57 F 0.11112 0.0196618 
45 Y 58 Y 0.048874 0.00759906 
45 Y 59 N 0.0795845 0.00894493 
45 Y 60 A 0.129225 0.0201276 
45 Y 61 K 0.131623 0.0218251 
45 Y 62 A 0.09399 0.0137885 
45 Y 63 G 0.086128 0.0160845 
45 Y 64 L 0.107532 0.0177093 
45 Y 65 C 0.00690617 0.00590982 
45 Y 66 Q 0.0861944 0.0142628 
45 Y 67 T 0.127277 0.0181973 
45 Y 68 F 0.151546 0.0163753 
45 Y 69 V 0.136978 0.021978 
45 Y 70 Y 0.142399 0.0128045 
45 Y 71 G 0.1714 0.0197272 
45 Y 72 G 0.114049 0.0136636 
45 Y 73 C 0.0957318 0.0137295 
45 Y 74 R 0.150756 0.0241406 
45 Y 75 A 0.170526 0.0415002 
45 Y 76 K 0.147744 0.0321044 
45 Y 77 R 0.119978 0.0177284 
45 Y 78 N 0.0551186 0.00749949 
45 Y 79 N 0.14777 0.0228841 
45 Y 80 F 0.0222921 0.00509334 
45 Y 81 K 0.126298 0.0177204 
45 Y 82 S 0.0756613 0.0103008 
45 Y 83 A 0.0900497 0.0126576 
45 Y 84 E 0.0957783 0.0144282 
45 Y 85 D 0.0850805 0.0117091 
45 Y 86 C 0.00577589 0.00452025 
45 Y 87 M 0.104249 0.0152973 
45 Y 88 R 0.0973769 0.0158896 
45 Y 89 T 0.115249 0.0206337 
45 Y 90 C 0.00417595 0.00886175 
45 Y 91 G 0.0540779 0.0109344 
46 T 47 G 0.327212 0.165207 
46 T 48 P 0.270074 0.0561979 
46 T 49 C 0.144291 0.0142013 
46 T 50 K 0.236133 0.0319616 
46 T 51 A 0.204737 0.024601 
46 T 52 R 0.197384 0.0269647 
46 T 53 I 0.201488 0.0265982 
46 T 54 I 0.192178 0.0329933 
46 T 55 R 0.134246 0.0203328 
46 T 56 Y 0.0797843 0.0081168 
46 T 57 F 0.106753 0.0167351 
46 T 58 Y 0.053505 0.00905454 
46 T 59 N 0.0919353 0.0127364 
46 T 60 A 0.121767 0.0213789 
46 T 61 K 0.106731 0.0173835 
46 T 62 A 0.102668 0.0149574 
46 T 63 G 0.0985202 0.0161851 
46 T 64 L 0.0911647 0.01726 
46 T 65 C 0.0113229 0.00405425 
46 T 66 Q 0.103724 0.0183548 
46 T 67 T 0.134389 0.0243427 
46 T 68 F 0.12568 0.014264 
46 T 69 V 0.141762 0.0286174 
46 T 70 Y 0.118683 0.0110397 
46 T 71 G 0.180413 0.0375985 
46 T 72 G 0.0987677 0.0142821 
46 T 73 C 0.104132 0.0131249 
46 T 74 R 0.123269 0.0192972 
46 T 75 A 0.117395 0.0191023 
46 T 76 K 0.107532 0.0132857 
46 T 77 R 0.1276 0.0181951 
46 T 78 N 0.0553085 0.00859695 
46 T 79 N 0.131187 0.0206827 
46 T 80 F 0.0185869 0.00345823 
46 T 81 K 0.128695 0.0235183 
46 T 82 S 0.086543 0.00990627 
46 T 83 A 0.115652 0.0195442 
46 T 84 E 0.102514 0.0191545 
46 T 85 D 0.0914643 0.0156357 
46 T 86 C 0.00979908 0.00307753 
46 T 87 M 0.110828 0.0168677 
46 T 88 R 0.114629 0.0172684 
46 T 89 T 0.114243 0.0209136 
46 T 90 C 0.00900798 0.0039212 
46 T 91 G 0.049216 0.0132287 
47 G 48 P 0.273169 0.143835 
47 G 49 C 0.142968 0.0517604 
47 G 50 K 0.209355 0.0268188 
47 G 51 A 0.188117 0.021688 
47 G 52 R 0.182202 0.0144713 
47 G 53 I 0.184029 0.0252498 
47 G 54 I 0.146504 0.0147812 
47 G 55 R 0.157968 0.0271578 
47 G 56 Y 0.0735226 0.00826764 
47 G 57 F 0.0898338 0.00826525 
47 G 58 Y 0.0394628 0.00736008 
47 G 59 N 0.0661308 0.00709454 
47 G 60 A 0.118984 0.0106263 
47 G 61 K 0.0976504 0.0151531 
47 G 62 A 0.0723684 0.0076253 
47 G 63 G 0.0791518 0.00912756 
47 G 64 L 0.0839536 0.0110194 
47 G 65 C 0.00292859 0.0222815 
47 G 66 Q 0.0890052 0.0176876 
47 G 67 T 0.110068 0.0153892 
47 G 68 F 0.186041 0.133434 
47 G 69 V 0.11816 0.0197072 
47 G 70 Y 0.191775 0.04379 
47 G 71 G 0.141083 0.0173344 
47 G 72 G 0.147644 0.0844867 
47 G 73 C 0.0598245 0.0141759 
47 G 74 R 0.11157 0.0195095 
47 G 75 A 0.188801 0.125171 
47 G 76 K 0.163975 0.0443714 
47 G 77 R 0.103177 0.00964135 
47 G 78 N 0.0530274 0.0190017 
47 G 79 N 0.170795 0.0546647 
47 G 80 F 0.0155287 0.0069437 
47 G 81 K 0.110713 0.0127781 
47 G 82 S 0.0500268 0.00593541 
47 G 83 A 0.0866476 0.0108308 
47 G 84 E 0.0741086 0.0102658 
47 G 85 D 0.075148 0.0123663 
47 G 86 C 0.0045651 0.0167201 
47 G 87 M 0.0893236 0.0106896 
47 G 88 R 0.0844853 0.014069 
47 G 89 T 0.0965979 0.0141065 
47 G 90 C 0.00386555 0.0165478 
47 G 91 G 0.0433677 0.0103952 
48 P 49 C 0.208991 0.0940462 
48 P 50 K 0.285469 0.0775852 
48 P 51 A 0.257374 0.0531531 
48 P 52 R 0.210877 0.0322871 
48 P 53 I 0.218285 0.025373 
48 P 54 I 0.174293 0.0234229 
48 P 55 R 0.147808 0.0162489 
48 P 56 Y 0.0813789 0.00921932 
48 P 57 F 0.10247 0.0156508 
48 P 58 Y 0.0538716 0.00735375 
48 P 59 N 0.0888382 0.0101175 
48 P 60 A 0.138891 0.0264675 
48 P 61 K 0.121343 0.0216166 
48 P 62 A 0.100703 0.0205903 
48 P 63 G 0.0990525 0.0164631 
48 P 64 L 0.101157 0.0200638 
48 P 65 C 0.00858226 0.00435692 
48 P 66 Q 0.0941535 0.0219524 
48 P 67 T 0.12562 0.0208128 
48 P 68 F 0.118851 0.0114761 
48 P 69 V 0.117132 0.0212945 
48 P 70 Y 0.106588 0.0121125 
48 P 71 G 0.250224 0.11304 
48 P 72 G 0.0961892 0.0122522 
48 P 73 C 0.140816 0.017907 
48 P 74 R 0.175287 0.049012 
48 P 75 A 0.116525 0.0129137 
48 P 76 K 0.0963624 0.0124026 
48 P 77 R 0.117539 0.0196624 
48 P 78 N 0.0554362 0.00966922 
48 P 79 N 0.121182 0.0135804 
48 P 80 F 0.0238086 0.00646199 
48 P 81 K 0.124927 0.019912 
48 P 82 S 0.0820911 0.0121615 
48 P 83 A 0.108749 0.0181213 
48 P 84 E 0.102336 0.0171067 
48 P 85 D 0.093537 0.0175964 
48 P 86 C 0.00689821 0.00301581 
48 P 87 M 0.102363 0.0161299 
48 P 88 R 0.103776 0.0182317 
48 P 89 T 0.111981 0.0209108 
48 P 90 C 0.00723974 0.00354958 
48 P 91 G 0.0492833 0.0140109 
49 C 50 K 0.211118 0.140382 
49 C 51 A 0.179793 0.0755652 
49 C 52 R 0.14415 0.0335169 
49 C 53 I 0.179074 0.0616094 
49 C 54 I 0.112728 0.0182857 
49 C 55 R 0.0788861 0.00921106 
49 C 56 Y 0.0522948 0.015047 
49 C 57 F 0.0457936 0.00556019 
49 C 58 Y 0.0288923 0.0154432 
49 C 59 N 0.0429724 0.00717597 
49 C 60 A 0.0580912 0.0115058 
49 C 61 K 0.0540934 0.0070356 
49 C 62 A 0.0421783 0.00915138 
49 C 63 G 0.060902 0.0136296 
49 C 64 L 0.0534125 0.00645935 
49 C 65 C 0.0056731 0.0861818 
49 C 66 Q 0.0554791 0.0106804 
49 C 67 T 0.0457091 0.00581773 
49 C 68 F 0.0468611 0.00467571 
49 C 69 V 0.069248 0.00807546 
49 C 70 Y 0.063501 0.0107542 
49 C 71 G 0.123662 0.0390264 
49 C 72 G 0.0655947 0.0382915 
49 C 73 C 0.384498 0.636198 
49 C 74 R 0.0715819 0.0110622 
49 C 75 A 0.0481842 0.00680995 
49 C 76 K 0.0478463 0.0124358 
49 C 77 R 0.0871966 0.0159499 
49 C 78 N 0.0128535 0.0145592 
49 C 79 N 0.061072 0.0098782 
49 C 80 F 0.00954945 0.0187127 
49 C 81 K 0.0825124 0.0189437 
49 C 82 S 0.0257662 0.0051901 
49 C 83 A 0.0481749 0.00717168 
49 C 84 E 0.0444157 0.008698 
49 C 85 D 0.0404855 0.00580261 
49 C 86 C 0.00554998 0.0593782 
49 C 87 M 0.0520246 0.00887512 
49 C 88 R 0.0451526 0.00584211 
49 C 89 T 0.0557698 0.0127502 
49 C 90 C 0.00598164 0.0351364 
49 C 91 G 0.0346332 0.010505 
50 K 51 A 0.319181 0.130956 
50 K 52 R 0.253396 0.0573782 
50 K 53 I 0.260575 0.0436587 
50 K 54 I 0.194731 0.0305813 
50 K 55 R 0.160814 0.016303 
50 K 56 Y 0.077639 0.00771582 
50 K 57 F 0.101375 0.0152313 
50 K 58 Y 0.0651898 0.0121938 
50 K 59 N 0.0958762 0.0133608 
50 K 60 A 0.135535 0.0211524 
50 K 61 K 0.107763 0.0202157 
50 K 62 A 0.0966818 0.013561 
50 K 63 G 0.0866287 0.0143074 
50 K 64 L 0.101227 0.0179158 
50 K 65 C 0.0108089 0.00363822 
50 K 66 Q 0.105516 0.0167754 
50 K 67 T 0.118031 0.0190532 
50 K 68 F 0.110519 0.0124089 
50 K 69 V 0.138381 0.0247534 
50 K 70 Y 0.119355 0.0160695 
50 K 71 G 0.19757 0.051529 
50 K 72 G 0.0953524 0.00939923 
50 K 73 C 0.12057 0.012346 
50 K 74 R 0.129271 0.0184525 
50 K 75 A 0.112214 0.0121323 
50 K 76 K 0.105437 0.014227 
50 K 77 R 0.11494 0.0202612 
50 K 78 N 0.0583523 0.00942393 
50 K 79 N 0.122091 0.0129208 
50 K 80 F 0.0227661 0.00745225 
50 K 81 K 0.127352 0.0223096 
50 K 82 S 0.0791951 0.0112442 
50 K 83 A 0.117074 0.0207667 
50 K 84 E 0.10088 0.0197809 
50 K 85 D 0.102346 0.0149209 
50 K 86 C 0.00928296 0.00387142 
50 K 87 M 0.106053 0.0158465 
50 K 88 R 0.10202 0.0183477 
50 K 89 T 0.114009 0.0230307 
50 K 90 C 0.00652966 0.00468649 
50 K 91 G 0.0497854 0.0111846 
51 A 52 R 0.283919 0.0995308 
51 A 53 I 0.348347 0.120403 
51 A 54 I 0.237503 0.0531145 
51 A 55 R 0.16928 0.0196769 
51 A 56 Y 0.0898295 0.0126104 
51 A 57 F 0.104417 0.0190761 
51 A 58 Y 0.0600363 0.0113321 
51 A 59 N 0.089211 0.0100797 
51 A 60 A 0.130047 0.0209941 
51 A 61 K 0.107225 0.0165147 
51 A 62 A 0.11465 0.0199431 
51 A 63 G 0.0996547 0.0158225 
51 A 64 L 0.0925704 0.0155622 
51 A 65 C 0.0097727 0.00408868 
51 A 66 Q 0.100812 0.0210995 
51 A 67 T 0.117594 0.0177197 
51 A 68 F 0.111554 0.0102444 
51 A 69 V 0.179464 0.0427708 
51 A 70 Y 0.124711 0.0163551 
51 A 71 G 0.213951 0.0612087 
51 A 72 G 0.109799 0.018987 
51 A 73 C 0.113177 0.0118711 
51 A 74 R 0.124545 0.0181958 
51 A 75 A 0.115325 0.015376 
51 A 76 K 0.123794 0.0207271 
51 A 77 R 0.126883 0.0188942 
51 A 78 N 0.0567744 0.00963706 
51 A 79 N 0.138206 0.017995 
51 A 80 F 0.0244386 0.00652919 
51 A 81 K 0.137733 0.0210491 
51 A 82 S 0.0769902 0.0148332 
51 A 83 A 0.111892 0.0182448 
51 A 84 E 0.0947632 0.0160825 
51 A 85 D 0.098431 0.0159847 
51 A 86 C 0.0101533 0.00333297 
51 A 87 M 0.117118 0.0194223 
51 A 88 R 0.108762 0.0164895 
51 A 89 T 0.121219 0.0192731 
51 A 90 C 0.00496227 0.00488205 
51 A 91 G 0.0484052 0.0118996 
52 R 53 I 0.262898 0.108035 
52 R 54 I 0.223207 0.0562751 
52 R 55 R 0.174907 0.0283465 
52 R 56 Y 0.100397 0.0179376 
52 R 57 F 0.110892 0.0168941 
52 R 58 Y 0.0687794 0.0112964 
52 R 59 N 0.105934 0.0167635 
52 R 60 A 0.126876 0.0212953 
52 R 61 K 0.117515 0.0207956 
52 R 62 A 0.10514 0.0185055 
52 R 63 G 0.0986004 0.0170682 
52 R 64 L 0.10166 0.0195152 
52 R 65 C 0.0117352 0.00389932 
52 R 66 Q 0.12493 0.0249664 
52 R 67 T 0.141832 0.0243221 
52 R 68 F 0.117671 0.0191809 
52 R 69 V 0.220053 0.0612568 
52 R 70 Y 0.137547 0.020023 
52 R 71 G 0.209371 0.0531569 
52 R 72 G 0.107835 0.0143496 
52 R 73 C 0.11352 0.0114209 
52 R 74 R 0.142699 0.0227296 
52 R 75 A 0.118997 0.0138956 
52 R 76 K 0.122342 0.0132946 
52 R 77 R 0.135551 0.0243933 
52 R 78 N 0.0614162 0.00809572 
52 R 79 N 0.149346 0.0215897 
52 R 80 F 0.0242578 0.0111417 
52 R 81 K 0.151547 0.0254594 
52 R 82 S 0.0950435 0.0156276 
52 R 83 A 0.114745 0.0209832 
52 R 84 E 0.0997278 0.0187068 
52 R 85 D 0.0974573 0.0143779 
52 R 86 C 0.00518945 0.00362861 
52 R 87 M 0.108231 0.0210342 
52 R 88 R 0.117081 0.0249659 
52 R 89 T 0.116182 0.020261 
52 R 90 C 0.00449878 0.00313015 
52 R 91 G 0.0508603 0.0146874 
53 I 54 I 0.256295 0.0849469 
53 I 55 R 0.217399 0.0444 
53 I 56 Y 0.0947815 0.0139735 
53 I 57 F 0.11054 0.0157002 
53 I 58 Y 0.0618156 0.0088302 
53 I 59 N 0.1091 0.0159208 
53 I 60 A 0.135751 0.0214432 
53 I 61 K 0.123938 0.0212869 
53 I 62 A 0.113365 0.0182211 
53 I 63 G 0.0978846 0.0196656 
53 I 64 L 0.106153 0.0229497 
53 I 65 C 0.0131674 0.00600733 
53 I 66 Q 0.111176 0.0204011 
53 I 67 T 0.139472 0.0236274 
53 I 68 F 0.132815 0.0177719 
53 I 69 V 0.200775 0.0461227 
53 I 70 Y 0.126452 0.0156917 
53 I 71 G 0.214042 0.0412779 
53 I 72 G 0.118891 0.0229426 
53 I 73 C 0.151374 0.0243506 
53 I 74 R 0.132116 0.0244875 
53 I 75 A 0.1176 0.0139035 
53 I 76 K 0.102567 0.0151437 
53 I 77 R 0.13779 0.0227735 
53 I 78 N 0.0553269 0.00658606 
53 I 79 N 0.144951 0.0156622 
53 I 80 F 0.0321756 0.0157967 
53 I 81 K 0.166672 0.0269176 
53 I 82 S 0.0924892 0.0167382 
53 I 83 A 0.115663 0.0185227 
53 I 84 E 0.113718 0.0222985 
53 I 85 D 0.0990959 0.0167653 
53 I 86 C 0.00993993 0.00410662 
53 I 87 M 0.114827 0.0180341 
53 I 88 R 0.109635 0.0189342 
53 I 89 T 0.129552 0.0241918 
53 I 90 C 0.00593645 0.00301493 
53 I 91 G 0.0490518 0.0119288 
54 I 55 R 0.18511 0.0544458 
54 I 56 Y 0.11159 0.0317544 
54 I 57 F 0.130442 0.0246692 
54 I 58 Y 0.0642206 0.0103316 
54 I 59 N 0.110612 0.0195158 
54 I 60 A 0.121026 0.0194273 
54 I 61 K 0.136825 0.0223402 
54 I 62 A 0.12718 0.0213097 
54 I 63 G 0.110911 0.0260568 
54 I 64 L 0.11889 0.0232537 
54 I 65 C 0.0122547 0.00327114 
54 I 66 Q 0.131823 0.027795 
54 I 67 T 0.174683 0.0393395 
54 I 68 F 0.110833 0.0154874 
54 I 69 V 0.211112 0.0518224 
54 I 70 Y 0.116742 0.0165719 
54 I 71 G 0.14899 0.0224765 
54 I 72 G 0.0884427 0.0113794 
54 I 73 C 0.104658 0.0205098 
54 I 74 R 0.134498 0.0209704 
54 I 75 A 0.116316 0.0189792 
54 I 76 K 0.106795 0.017172 
54 I 77 R 0.12932 0.020124 
54 I 78 N 0.0563891 0.00738046 
54 I 79 N 0.13204 0.0191007 
54 I 80 F 0.0269429 0.0108953 
54 I 81 K 0.15708 0.0284677 
54 I 82 S 0.086547 0.0133511 
54 I 83 A 0.127443 0.0218419 
54 I 84 E 0.122988 0.0216429 
54 I 85 D 0.0893272 0.015483 
54 I 86 C 0.00915243 0.00383028 
54 I 87 M 0.106385 0.0190161 
54 I 88 R 0.117908 0.0266568 
54 I 89 T 0.12733 0.0265295 
54 I 90 C 0.00746905 0.00526868 
54 I 91 G 0.0634068 0.016804 
55 R 56 Y 0.107192 0.0430539 
55 R 57 F 0.142923 0.0238609 
55 R 58 Y 0.0557941 0.0114821 
55 R 59 N 0.0921837 0.0156183 
55 R 60 A 0.138134 0.0189103 
55 R 61 K 0.110261 0.0154893 
55 R 62 A 0.0974107 0.010976 
55 R 63 G 0.111949 0.0165984 
55 R 64 L 0.101581 0.0131316 
55 R 65 C 0.00891724 0.0151412 
55 R 66 Q 0.10928 0.0160559 
55 R 67 T 0.128144 0.0179229 
55 R 68 F 0.163349 0.0461704 
55 R 69 V 0.15063 0.0227323 
55 R 70 Y 0.151256 0.0202777 
55 R 71 G 0.141467 0.0203369 
55 R 72 G 0.117471 0.0197556 
55 R 73 C 0.0812875 0.0195604 
55 R 74 R 0.130909 0.018928 
55 R 75 A 0.143245 0.0220675 
55 R 76 K 0.130042 0.0166109 
55 R 77 R 0.140218 0.02355 
55 R 78 N 0.0500577 0.00930143 
55 R 79 N 0.360859 0.267531 
55 R 80 F 0.022277 0.0113864 
55 R 81 K 0.249906 0.108946 
55 R 82 S 0.0734023 0.0137143 
55 R 83 A 0.103094 0.0179757 
55 R 84 E 0.0967456 0.0151152 
55 R 85 D 0.102327 0.0183084 
55 R 86 C 0.00601892 0.0119982 
55 R 87 M 0.103271 0.0123603 
55 R 88 R 0.110559 0.0140251 
55 R 89 T 0.102965 0.0142639 
55 R 90 C 0.00469736 0.00998168 
55 R 91 G 0.0596403 0.010654 
56 Y 57 F 0.0823148 0.0272574 
56 Y 58 Y 0.0485238 0.0294131 
56 Y 59 N 0.0699636 0.0171075 
56 Y 60 A 0.06281 0.00770858 
56 Y 61 K 0.0585773 0.0109792 
56 Y 62 A 0.0639037 0.0164425 
56 Y 63 G 0.0556083 0.00899029 
56 Y 64 L 0.0544242 0.0101704 
56 Y 65 C 0.00736508 0.0602571 
56 Y 66 Q 0.0800642 0.0182885 
56 Y 67 T 0.0887842 0.0242951 
56 Y 68 F 0.0493234 0.00679937 
56 Y 69 V 0.0720441 0.013871 
56 Y 70 Y 0.0574304 0.00793475 
56 Y 71 G 0.0694446 0.0170066 
56 Y 72 G 0.0389643 0.00893236 
56 Y 73 C 0.0455759 0.00964997 
56 Y 74 R 0.0516489 0.0074815 
56 Y 75 A 0.0482243 0.00426015 
56 Y 76 K 0.0454072 0.00449599 
56 Y 77 R 0.0564521 0.0140153 
56 Y 78 N 0.0325582 0.0465111 
56 Y 79 N 0.0592026 0.00747276 
56 Y 80 F 0.0101398 0.0243892 
56 Y 81 K 0.0632444 0.0123251 
56 Y 82 S 0.0364311 0.0121165 
56 Y 83 A 0.12428 0.0450425 
56 Y 84 E 0.0491821 0.00887573 
56 Y 85 D 0.0484288 0.0129828 
56 Y 86 C 0.00749982 0.0508131 
56 Y 87 M 0.0711892 0.00833595 
56 Y 88 R 0.0538829 0.00913224 
56 Y 89 T 0.064057 0.00954813 
56 Y 90 C 0.00304156 0.0319232 
56 Y 91 G 0.0295851 0.0112431 
57 F 58 Y 0.06984 0.0459013 
57 F 59 N 0.134361 0.0522016 
57 F 60 A 0.107284 0.0157777 
57 F 61 K 0.113784 0.0302342 
57 F 62 A 0.102938 0.0176216 
57 F 63 G 0.0832834 0.0207179 
57 F 64 L 0.0863868 0.0170755 
57 F 65 C 0.010048 0.0187446 
57 F 66 Q 0.156484 0.0604923 
57 F 67 T 0.0972789 0.0182481 
57 F 68 F 0.111984 0.0333657 
57 F 69 V 0.0995049 0.0154691 
57 F 70 Y 0.0814265 0.00970813 
57 F 71 G 0.0919973 0.0169105 
57 F 72 G 0.0710945 0.00786442 
57 F 73 C 0.0602115 0.00912975 
57 F 74 R 0.0828072 0.0156482 
57 F 75 A 0.0821131 0.0145347 
57 F 76 K 0.11737 0.0438899 
57 F 77 R 0.0982007 0.0173985 
57 F 78 N 0.0437505 0.0159813 
57 F 79 N 0.138535 0.0352867 
57 F 80 F 0.0242861 0.0143057 
57 F 81 K 0.0986387 0.0147662 
57 F 82 S 0.0653219 0.0093814 
57 F 83 A 0.0915219 0.0143287 
57 F 84 E 0.0744143 0.0121522 
57 F 85 D 0.0765866 0.0116792 
57 F 86 C 0.00602869 0.0156917 
57 F 87 M 0.108275 0.0226996 
57 F 88 R 0.0875622 0.0169807 
57 F 89 T 0.100294 0.0220514 
57 F 90 C 0.0059404 0.00994825 
57 F 91 G 0.0522015 0.0127406 
58 Y 59 N 0.0660418 0.0440993 
58 Y 60 A 0.0528501 0.0082743 
58 Y 61 K 0.0631169 0.0119293 
58 Y 62 A 0.0448059 0.00952665 
58 Y 63 G 0.0586576 0.0186664 
58 Y 64 L 0.0387622 0.00745445 
58 Y 65 C 0.0124784 0.129962 
58 Y 66 Q 0.0420728 0.0106354 
58 Y 67 T 0.0444806 0.0115379 
58 Y 68 F 0.0227882 0.0149929 
58 Y 69 V 0.0450345 0.00997654 
58 Y 70 Y 0.0251351 0.00535917 
58 Y 71 G 0.0386511 0.00653113 
58 Y 72 G 0.0254236 0.00736573 
58 Y 73 C 0.0293421 0.00612549 
58 Y 74 R 0.0440185 0.0105069 
58 Y 75 A 0.026303 0.0043635 
58 Y 76 K 0.0291749 0.0101272 
58 Y 77 R 0.0503892 0.0124321 
58 Y 78 N 0.0112737 0.027438 
58 Y 79 N 0.029827 0.0115551 
58 Y 80 F 0.00419787 0.0265057 
58 Y 81 K 0.0479549 0.00933376 
58 Y 82 S 0.0200456 0.00315075 
58 Y 83 A 0.0366962 0.00525553 
58 Y 84 E 0.038969 0.00821411 
58 Y 85 D 0.030661 0.00633692 
58 Y 86 C 0.00268439 0.0674863 
58 Y 87 M 0.035492 0.00636637 
58 Y 88 R 0.0413204 0.0110056 
58 Y 89 T 0.0363037 0.0078619 
58 Y 90 C 0.00305997 0.0683524 
58 Y 91 G 0.0361186 0.0163327 
59 N 60 A 0.117539 0.0282507 
59 N 61 K 0.110221 0.0215428 
59 N 62 A 0.120766 0.0283159 
59 N 63 G 0.0908515 0.0144316 
59 N 64 L 0.0919783 0.0130491 
59 N 65 C 0.00995122 0.0567391 
59 N 66 Q 0.276746 0.208493 
59 N 67 T 0.0842748 0.0126821 
59 N 68 F 0.0492542 0.00841977 
59 N 69 V 0.0914171 0.0133094 
59 N 70 Y 0.0528971 0.00640812 
59 N 71 G 0.0780256 0.011763 
59 N 72 G 0.0374478 0.00342356 
59 N 73 C 0.0465579 0.00834843 
59 N 74 R 0.0652948 0.00772479 
59 N 75 A 0.068947 0.0150179 
59 N 76 K 0.0475811 0.00724913 
59 N 77 R 0.0797561 0.0130219 
59 N 78 N 0.02543 0.0134461 
59 N 79 N 0.0827 0.010191 
59 N 80 F 0.00849879 0.0151813 
59 N 81 K 0.075694 0.00913668 
59 N 82 S 0.0424152 0.00863627 
59 N 83 A 0.077189 0.0111526 
59 N 84 E 0.0670117 0.00804804 
59 N 85 D 0.0523189 0.00773854 
59 N 86 C 0.00318228 0.0319415 
59 N 87 M 0.0812635 0.012843 
59 N 88 R 0.0624373 0.00770977 
59 N 89 T 0.0714076 0.0122293 
59 N 90 C 0.00307899 0.0206259 
59 N 91 G 0.0490602 0.00763032 
60 A 61 K 0.227101 0.13678 
60 A 62 A 0.14935 0.0565609 
60 A 63 G 0.126042 0.0250702 
60 A 64 L 0.124398 0.0325062 
60 A 65 C 0.0105253 0.00758139 
60 A 66 Q 0.11526 0.0232402 
60 A 67 T 0.127385 0.0207094 
60 A 68 F 0.11082 0.0163694 
60 A 69 V 0.129205 0.0242113 
60 A 70 Y 0.105792 0.0129708 
60 A 71 G 0.134648 0.0251508 
60 A 72 G 0.0900685 0.0123967 
60 A 73 C 0.103385 0.0114113 
60 A 74 R 0.112603 0.0197043 
60 A 75 A 0.107614 0.0177213 
60 A 76 K 0.112412 0.0157908 
60 A 77 R 0.140057 0.0260992 
60 A 78 N 0.0656141 0.0153515 
60 A 79 N 0.129879 0.0203964 
60 A 80 F 0.0203586 0.0083159 
60 A 81 K 0.126357 0.0228293 
60 A 82 S 0.0812361 0.0123705 
60 A 83 A 0.126803 0.0223226 
60 A 84 E 0.103404 0.0174043 
60 A 85 D 0.109548 0.0175001 
60 A 86 C 0.0081543 0.0034675 
60 A 87 M 0.130059 0.0204379 
60 A 88 R 0.105295 0.0191912 
60 A 89 T 0.124864 0.0232469 
60 A 90 C 0.00563452 0.00529827 
60 A 91 G 0.0721739 0.0169616 
61 K 62 A 0.175499 0.0727569 
61 K 63 G 0.116736 0.0207181 
61 K 64 L 0.114857 0.0250193 
61 K 65 C 0.0117502 0.00399876 
61 K 66 Q 0.114661 0.0226473 
61 K 67 T 0.12892 0.0220543 
61 K 68 F 0.104886 0.015408 
61 K 69 V 0.125056 0.0238657 
61 K 70 Y 0.10965 0.0123775 
61 K 71 G 0.124873 0.0173251 
61 K 72 G 0.0877443 0.00845414 
61 K 73 C 0.102267 0.00959158 
61 K 74 R 0.113718 0.0181707 
61 K 75 A 0.1063 0.0131013 
61 K 76 K 0.106875 0.0134879 
61 K 77 R 0.120449 0.0201563 
61 K 78 N 0.0512825 0.0065619 
61 K 79 N 0.121012 0.0141976 
61 K 80 F 0.020651 0.00559385 
61 K 81 K 0.121304 0.0228876 
61 K 82 S 0.0795681 0.0111033 
61 K 83 A 0.109211 0.0173727 
61 K 84 E 0.11699 0.0255129 
61 K 85 D 0.100549 0.0170327 
61 K 86 C 0.0099683 0.00306248 
61 K 87 M 0.105746 0.0184475 
61 K 88 R 0.110053 0.0187423 
61 K 89 T 0.116727 0.0232657 
61 K 90 C 0.00620028 0.00419953 
61 K 91 G 0.0616951 0.0126885 
62 A 63 G 0.112556 0.0227123 
62 A 64 L 0.142227 0.0437309 
62 A 65 C 0.0134414 0.0132054 
62 A 66 Q 0.217281 0.0772196 
62 A 67 T 0.114112 0.0201574 
62 A 68 F 0.0751101 0.00796364 
62 A 69 V 0.12625 0.0294227 
62 A 70 Y 0.0790177 0.01059 
62 A 71 G 0.105485 0.0143822 
62 A 72 G 0.0754315 0.0138384 
62 A 73 C 0.0846992 0.0122074 
62 A 74 R 0.105603 0.0188695 
62 A 75 A 0.0798257 0.0131789 
62 A 76 K 0.0695803 0.00826124 
62 A 77 R 0.0977085 0.0171602 
62 A 78 N 0.0437504 0.00761133 
62 A 79 N 0.113016 0.0136786 
62 A 80 F 0.0134266 0.00535822 
62 A 81 K 0.104566 0.0178683 
62 A 82 S 0.0647758 0.00827293 
62 A 83 A 0.120595 0.0204939 
62 A 84 E 0.100619 0.0166251 
62 A 85 D 0.0853841 0.0138234 
62 A 86 C 0.0047766 0.00463207 
62 A 87 M 0.091338 0.0162994 
62 A 88 R 0.0975553 0.0185721 
62 A 89 T 0.0891764 0.0137026 
62 A 90 C 0.00487877 0.00750476 
62 A 91 G 0.0490085 0.0141009 
63 G 64 L 0.117868 0.0302393 
63 G 65 C 0.0181103 0.0176836 
63 G 66 Q 0.11933 0.0262506 
63 G 67 T 0.102876 0.0204263 
63 G 68 F 0.0758761 0.011086 
63 G 69 V 0.109151 0.0207422 
63 G 70 Y 0.09696 0.0150224 
63 G 71 G 0.0959862 0.0136937 
63 G 72 G 0.0817266 0.0128384 
63 G 73 C 0.0970762 0.0170656 
63 G 74 R 0.107062 0.0182696 
63 G 75 A 0.0815471 0.00923398 
63 G 76 K 0.0780017 0.0166636 
63 G 77 R 0.0939361 0.0190013 
63 G 78 N 0.0437858 0.00848906 
63 G 79 N 0.109764 0.0177706 
63 G 80 F 0.0193098 0.00681408 
63 G 81 K 0.108166 0.0190214 
63 G 82 S 0.0790871 0.0132327 
63 G 83 A 0.105212 0.0195106 
63 G 84 E 0.108576 0.0248121 
63 G 85 D 0.0822605 0.0128155 
63 G 86 C 0.00701792 0.00562198 
63 G 87 M 0.105884 0.0210537 
63 G 88 R 0.0842326 0.0136567 
63 G 89 T 0.105428 0.0200791 
63 G 90 C 0.00565071 0.00945909 
63 G 91 G 0.0742773 0.031921 
64 L 65 C 0.0141525 0.00871658 
64 L 66 Q 0.124929 0.0325021 
64 L 67 T 0.121086 0.0239775 
64 L 68 F 0.0900356 0.01467 
64 L 69 V 0.128881 0.0283531 
64 L 70 Y 0.0977926 0.0162895 
64 L 71 G 0.105161 0.0178722 
64 L 72 G 0.0797307 0.0118921 
64 L 73 C 0.0839025 0.0112293 
64 L 74 R 0.102018 0.0213922 
64 L 75 A 0.0884109 0.0110077 
64 L 76 K 0.0827392 0.0156097 
64 L 77 R 0.0999088 0.0186069 
64 L 78 N 0.0633466 0.0182728 
64 L 79 N 0.10757 0.0131373 
64 L 80 F 0.0200878 0.0103097 
64 L 81 K 0.100376 0.0203288 
64 L 82 S 0.067543 0.0111315 
64 L 83 A 0.117479 0.0250236 
64 L 84 E 0.101564 0.0180943 
64 L 85 D 0.0723721 0.0131277 
64 L 86 C 0.00916219 0.00468881 
64 L 87 M 0.119331 0.0230229 
64 L 88 R 0.0961253 0.0192096 
64 L 89 T 0.0992716 0.021278 
64 L 90 C 0.00664819 0.00578791 
64 L 91 G 0.0656856 0.0279137 
65 C 66 Q 0.014616 0.011746 
65 C 67 T 0.0102427 0.00590609 
65 C 68 F 0.00591549 0.028665 
65 C 69 V 0.0133799 0.00482683 
65 C 70 Y 0.00540049 0.00679793 
65 C 71 G 0.00859882 0.00441029 
65 C 72 G 0.00373753 0.0205502 
65 C 73 C 0.00433482 0.058103 
65 C 74 R 0.00872814 0.0040912 
65 C 75 A 0.00397071 0.00263073 
65 C 76 K 0.00203844 0.00378795 
65 C 77 R 0.00908943 0.00800917 
65 C 78 N 0.00101157 0.1811 
65 C 79 N 0.00374346 0.00341799 
65 C 80 F 0.00115642 0.212993 
65 C 81 K 0.00924441 0.00414803 
65 C 82 S 0.0076407 0.0310261 
65 C 83 A 0.00863339 0.00513409 
65 C 84 E 0.00818944 0.00842243 
65 C 85 D 0.00652214 0.00980365 
65 C 86 C 0.00152759 0.359169 
65 C 87 M 0.00889725 0.00819048 
65 C 88 R 0.00815116 0.00778216 
65 C 89 T 0.00892332 0.01189 
65 C 90 C 0.00191135 0.33067 
65 C 91 G 0.00385514 0.0172527 
66 Q 67 T 0.145428 0.0273945 
66 Q 68 F 0.0725465 0.00765596 
66 Q 69 V 0.155276 0.0392579 
66 Q 70 Y 0.112396 0.0154044 
66 Q 71 G 0.121854 0.024122 
66 Q 72 G 0.0809946 0.00929897 
66 Q 73 C 0.097183 0.0141723 
66 Q 74 R 0.0925997 0.0152391 
66 Q 75 A 0.0809661 0.0131451 
66 Q 76 K 0.079749 0.0149047 
66 Q 77 R 0.113886 0.0205601 
66 Q 78 N 0.0438857 0.0145476 
66 Q 79 N 0.122194 0.0178019 
66 Q 80 F 0.0203668 0.0084005 
66 Q 81 K 0.111597 0.0189168 
66 Q 82 S 0.0900662 0.0151432 
66 Q 83 A 0.131427 0.0256759 
66 Q 84 E 0.105455 0.0243177 
66 Q 85 D 0.0938878 0.017743 
66 Q 86 C 0.00747213 0.0035591 
66 Q 87 M 0.120288 0.0235825 
66 Q 88 R 0.097008 0.0177462 
66 Q 89 T 0.100497 0.0226715 
66 Q 90 C 0.00311321 0.00549618 
66 Q 91 G 0.0525915 0.0157782 
67 T 68 F 0.168114 0.12302 
67 T 69 V 0.169718 0.0335768 
67 T 70 Y 0.122755 0.0204777 
67 T 71 G 0.136543 0.0249121 
67 T 72 G 0.0950065 0.0204882 
67 T 73 C 0.0946534 0.0132163 
67 T 74 R 0.121615 0.0191293 
67 T 75 A 0.126293 0.0186846 
67 T 76 K 0.106957 0.011736 
67 T 77 R 0.113714 0.0176619 
67 T 78 N 0.0555241 0.00820905 
67 T 79 N 0.133021 0.0217236 
67 T 80 F 0.0166754 0.00604446 
67 T 81 K 0.12405 0.0203149 
67 T 82 S 0.084996 0.0118516 
67 T 83 A 0.13164 0.0224668 
67 T 84 E 0.104223 0.016735 
67 T 85 D 0.0994723 0.0173473 
67 T 86 C 0.00756765 0.00502049 
67 T 87 M 0.125577 0.0260786 
67 T 88 R 0.104437 0.0171052 
67 T 89 T 0.130303 0.0252443 
67 T 90 C 0.00519043 0.00447003 
67 T 91 G 0.0585382 0.0152143 
68 F 69 V 0.129483 0.0205509 
68 F 70 Y 0.212416 0.0927696 
68 F 71 G 0.173914 0.0554264 
68 F 72 G 0.138184 0.0449117 
68 F 73 C 0.0678921 0.00866572 
68 F 74 R 0.120095 0.0186342 
68 F 75 A 0.17686 0.0655554 
68 F 76 K 0.176831 0.096598 
68 F 77 R 0.134327 0.0221062 
68 F 78 N 0.0612208 0.0331653 
68 F 79 N 0.184455 0.065554 
68 F 80 F 0.020693 0.0285259 
68 F 81 K 0.134317 0.0256962 
68 F 82 S 0.0436713 0.0074249 
68 F 83 A 0.0820539 0.0138328 
68 F 84 E 0.0763723 0.00787175 
68 F 85 D 0.0814225 0.0169055 
68 F 86 C 0.00203259 0.00816157 
68 F 87 M 0.0934949 0.0138426 
68 F 88 R 0.0794905 0.0126518 
68 F 89 T 0.0886447 0.0128172 
68 F 90 C 0.00562044 0.0113442 
68 F 91 G 0.0581901 0.0162518 
69 V 70 Y 0.150709 0.0229452 
69 V 71 G 0.193092 0.0335602 
69 V 72 G 0.118243 0.0135379 
69 V 73 C 0.107335 0.0150869 
69 V 74 R 0.120691 0.0203152 
69 V 75 A 0.128031 0.0184053 
69 V 76 K 0.13472 0.0218816 
69 V 77 R 0.136916 0.0247501 
69 V 78 N 0.0614243 0.00730811 
69 V 79 N 0.149115 0.022704 
69 V 80 F 0.0225033 0.00505452 
69 V 81 K 0.1354 0.0222722 
69 V 82 S 0.0813952 0.015922 
69 V 83 A 0.136205 0.0250094 
69 V 84 E 0.097422 0.0181388 
69 V 85 D 0.100569 0.0198253 
69 V 86 C 0.00559072 0.00245023 
69 V 87 M 0.116583 0.0197403 
69 V 88 R 0.107968 0.0216012 
69 V 89 T 0.129179 0.0241616 
69 V 90 C 0.00504922 0.0023417 
69 V 91 G 0.0572575 0.018293 
70 Y 71 G 0.191829 0.0436133 
70 Y 72 G 0.234778 0.219073 
70 Y 73 C 0.0890307 0.0115199 
70 Y 74 R 0.155085 0.0274568 
70 Y 75 A 0.228871 0.128662 
70 Y 76 K 0.198046 0.0481814 
70 Y 77 R 0.128956 0.0212103 
70 Y 78 N 0.066669 0.0123485 
70 Y 79 N 0.189501 0.0395219 
70 Y 80 F 0.0169006 0.0068466 
70 Y 81 K 0.127943 0.022679 
70 Y 82 S 0.0556863 0.00720058 
70 Y 83 A 0.102238 0.0133508 
70 Y 84 E 0.0850902 0.0113204 
70 Y 85 D 0.0858922 0.010827 
70 Y 86 C 0.00815615 0.00301702 
70 Y 87 M 0.105064 0.0125513 
70 Y 88 R 0.101219 0.0162183 
70 Y 89 T 0.110824 0.0167906 
70 Y 90 C 0.0051998 0.00585005 
70 Y 91 G 0.0689255 0.0129407 
71 G 72 G 0.193316 0.118733 
71 G 73 C 0.166266 0.0862474 
71 G 74 R 0.198303 0.0514597 
71 G 75 A 0.16364 0.0256494 
71 G 76 K 0.155013 0.0151187 
71 G 77 R 0.14261 0.0203227 
71 G 78 N 0.0634523 0.00701379 
71 G 79 N 0.159616 0.0180541 
71 G 80 F 0.0252597 0.00582127 
71 G 81 K 0.16018 0.0234758 
71 G 82 S 0.0733405 0.0114684 
71 G 83 A 0.13367 0.0222377 
71 G 84 E 0.11058 0.0166003 
71 G 85 D 0.117604 0.0188107 
71 G 86 C 0.00788974 0.00518036 
71 G 87 M 0.127573 0.021728 
71 G 88 R 0.106655 0.0198432 
71 G 89 T 0.143241 0.0232511 
71 G 90 C 0.00731958 0.00337439 
71 G 91 G 0.0565338 0.00972012 
72 G 73 C 0.0963605 0.0495379 
72 G 74 R 0.12679 0.0188383 
72 G 75 A 0.180548 0.111605 
72 G 76 K 0.161079 0.0731285 
72 G 77 R 0.116756 0.0144258 
72 G 78 N 0.0625826 0.0164205 
72 G 79 N 0.146421 0.0241003 
72 G 80 F 0.0255384 0.00961751 
72 G 81 K 0.114441 0.0178967 
72 G 82 S 0.076524 0.012556 
72 G 83 A 0.0954353 0.0124425 
72 G 84 E 0.0804142 0.0088062 
72 G 85 D 0.0839751 0.00686843 
72 G 86 C 0.0151528 0.0151958 
72 G 87 M 0.108034 0.0158931 
72 G 88 R 0.0987126 0.0119944 
72 G 89 T 0.0951471 0.0148331 
72 G 90 C 0.0153858 0.0173923 
72 G 91 G 0.0600264 0.0247686 
73 C 74 R 0.145555 0.0198649 
73 C 75 A 0.101748 0.017358 
73 C 76 K 0.0990326 0.0170444 
73 C 77 R 0.165356 0.0302736 
73 C 78 N 0.0482973 0.0262475 
73 C 79 N 0.123998 0.014453 
73 C 80 F 0.0448978 0.0378496 
73 C 81 K 0.168126 0.0241414 
73 C 82 S 0.0829429 0.0095333 
73 C 83 A 0.112135 0.0107731 
73 C 84 E 0.112004 0.0123779 
73 C 85 D 0.104925 0.0141514 
73 C 86 C 0.0317941 0.0768455 
73 C 87 M 0.11123 0.00998063 
73 C 88 R 0.0991971 0.010393 
73 C 89 T 0.111399 0.0112753 
73 C 90 C 0.0260146 0.0230601 
73 C 91 G 0.0597312 0.00873025 
74 R 75 A 0.172436 0.0469046 
74 R 76 K 0.157367 0.0272779 
74 R 77 R 0.163272 0.0267535 
74 R 78 N 0.099214 0.0248255 
74 R 79 N 0.167643 0.0231499 
74 R 80 F 0.0488698 0.0101922 
74 R 81 K 0.175925 0.0273239 
74 R 82 S 0.0936449 0.0114853 
74 R 83 A 0.129959 0.0180035 
74 R 84 E 0.140749 0.019577 
74 R 85 D 0.113076 0.0155049 
74 R 86 C 0.0318335 0.00537947 
74 R 87 M 0.122091 0.0170309 
74 R 88 R 0.121031 0.0168153 
74 R 89 T 0.132308 0.023293 
74 R 90 C 0.0225804 0.00518401 
74 R 91 G 0.0551411 0.0137586 
75 A 76 K 0.246178 0.195092 
75 A 77 R 0.149415 0.0283087 
75 A 78 N 0.112865 0.0664996 
75 A 79 N 0.231445 0.0630476 
75 A 80 F 0.0463633 0.0114586 
75 A 81 K 0.15177 0.0210029 
75 A 82 S 0.0912178 0.0133907 
75 A 83 A 0.114262 0.012374 
75 A 84 E 0.105489 0.0111453 
75 A 85 D 0.098134 0.0105647 
75 A 86 C 0.0310854 0.00560756 
75 A 87 M 0.125569 0.0148955 
75 A 88 R 0.110435 0.0150429 
75 A 89 T 0.118666 0.0125459 
75 A 90 C 0.0271365 0.00799155 
75 A 91 G 0.0565872 0.0100793 
76 K 77 R 0.169687 0.040891 
76 K 78 N 0.129377 0.119084 
76 K 79 N 0.265277 0.112318 
76 K 80 F 0.0471562 0.0125747 
76 K 81 K 0.14083 0.019895 
76 K 82 S 0.0796304 0.00844064 
76 K 83 A 0.127342 0.017552 
76 K 84 E 0.112007 0.0142908 
76 K 85 D 0.105623 0.0115427 
76 K 86 C 0.0308135 0.00648106 
76 K 87 M 0.129003 0.0194285 
76 K 88 R 0.109154 0.0124057 
76 K 89 T 0.121038 0.0149515 
76 K 90 C 0.0280604 0.0066434 
76 K 91 G 0.046262 0.0089229 
77 R 78 N 0.132844 0.0635915 
77 R 79 N 0.199799 0.0440729 
77 R 80 F 0.0479525 0.0121619 
77 R 81 K 0.178036 0.0270558 
77 R 82 S 0.103177 0.0125469 
77 R 83 A 0.13843 0.0207637 
77 R 84 E 0.131354 0.0194987 
77 R 85 D 0.132549 0.0189633 
77 R 86 C 0.0206533 0.00440862 
77 R 87 M 0.145468 0.0226868 
77 R 88 R 0.118337 0.0187354 
77 R 89 T 0.141841 0.0266174 
77 R 90 C 0.0194667 0.00742724 
77 R 91 G 0.0593549 0.015524 
78 N 79 N 0.167837 0.126952 
78 N 80 F 0.0516198 0.14807 
78 N 81 K 0.0939574 0.0110139 
78 N 82 S 0.0635082 0.0184362 
78 N 83 A 0.0864914 0.0138627 
78 N 84 E 0.0775608 0.00984198 
78 N 85 D 0.0661477 0.0108203 
78 N 86 C 0.0337857 0.205529 
78 N 87 M 0.0855429 0.011861 
78 N 88 R 0.0708518 0.00530174 
78 N 89 T 0.0755715 0.00657887 
78 N 90 C 0.0263518 0.160717 
78 N 91 G 0.0323258 0.00792249 
79 N 80 F 0.0579359 0.0143127 
79 N 81 K 0.24927 0.0388391 
79 N 82 S 0.10689 0.0118157 
79 N 83 A 0.146302 0.0162085 
79 N 84 E 0.135784 0.0159083 
79 N 85 D 0.144703 0.0179503 
79 N 86 C 0.0398878 0.00696878 
79 N 87 M 0.141507 0.0150113 
79 N 88 R 0.148617 0.0163129 
79 N 89 T 0.156293 0.0220264 
79 N 90 C 0.0349502 0.00438507 
79 N 91 G 0.0634273 0.011625 
80 F 81 K 0.0897081 0.0308231 
80 F 82 S 0.0626184 0.0449371 
80 F 83 A 0.0623915 0.0135526 
80 F 84 E 0.061846 0.0109245 
80 F 85 D 0.0603186 0.0116461 
80 F 86 C 0.0412494 0.251536 
80 F 87 M 0.0553132 0.0072022 
80 F 88 R 0.0564473 0.0123516 
80 F 89 T 0.0545792 0.0105252 
80 F 90 C 0.0333534 0.184378 
80 F 91 G 0.0157765 0.00671462 
81 K 82 S 0.163241 0.0346071 
81 K 83 A 0.177071 0.0316564 
81 K 84 E 0.163787 0.0287972 
81 K 85 D 0.184331 0.0401115 
81 K 86 C 0.0521937 0.00860387 
81 K 87 M 0.155635 0.0229174 
81 K 88 R 0.157151 0.0241471 
81 K 89 T 0.174681 0.0274532 
81 K 90 C 0.0418074 0.00528162 
81 K 91 G 0.0740462 0.0176031 
82 S 83 A 0.147914 0.0338902 
82 S 84 E 0.151254 0.0346977 
82 S 85 D 0.167876 0.0551467 
82 S 86 C 0.0573342 0.0467545 
82 S 87 M 0.122512 0.0153341 
82 S 88 R 0.120794 0.0138572 
82 S 89 T 0.114766 0.0115912 
82 S 90 C 0.0460305 0.029922 
82 S 91 G 0.0487587 0.00753477 
83 A 84 E 0.173131 0.0381557 
83 A 85 D 0.154609 0.0260637 
83 A 86 C 0.0624142 0.0225876 
83 A 87 M 0.311675 0.128587 
83 A 88 R 0.142373 0.0158219 
83 A 89 T 0.144269 0.0220739 
83 A 90 C 0.0519874 0.00884685 
83 A 91 G 0.0735419 0.0179815 
84 E 85 D 0.151589 0.0315958 
84 E 86 C 0.0709782 0.0305207 
84 E 87 M 0.17422 0.0357992 
84 E 88 R 0.168573 0.0302478 
84 E 89 T 0.134378 0.0176527 
84 E 90 C 0.0534418 0.00605395 
84 E 91 G 0.0659335 0.013417 
85 D 86 C 0.0832572 0.0640937 
85 D 87 M 0.17001 0.0404107 
85 D 88 R 0.194946 0.0408717 
85 D 89 T 0.172523 0.0295905 
85 D 90 C 0.0633667 0.0160673 
85 D 91 G 0.0566005 0.00843442 
86 C 87 M 0.0953051 0.0770378 
86 C 88 R 0.0864753 0.0617403 
86 C 89 T 0.0728283 0.021759 
86 C 90 C 0.0688409 0.447848 
86 C 91 G 0.0177303 0.0120522 
87 M 88 R 0.187332 0.0583002 
87 M 89 T 0.177559 0.0382934 
87 M 90 C 0.077429 0.0257036 
87 M 91 G 0.112825 0.0437098 
88 R 89 T 0.224585 0.0740621 
88 R 90 C 0.0947752 0.0607007 
88 R 91 G 0.0731006 0.0181615 
89 T 90 C 0.161596 0.170373 
89 T 91 G 0.0793427 0.0206792 
90 C 91 G 0.0326281 0.0186122 
