average cumulative strength:,0.0442
residue index,amino acid,number of ECs,cumulative strength,EC strength,conservation
64,C,4,0.634,14.3,84
48,C,3,0.617,14.0,82
185,C,7,0.573,12.9,85
196,C,4,0.532,12.0,79
139,C,5,0.522,11.8,38
63,H,4,0.502,11.4,80
220,C,6,0.497,11.2,73
200,S,6,0.479,10.8,77
171,C,5,0.458,10.4,84
206,C,2,0.402,9.1,33
58,V,5,0.347,7.8,57
194,D,7,0.344,7.8,50
50,G,3,0.317,7.2,73
227,G,7,0.303,6.9,47
46,H,1,0.294,6.6,31
40,S,1,0.294,6.6,33
109,M,7,0.288,6.5,65
160,C,5,0.277,6.3,19
38,Q,8,0.277,6.3,37
112,K,5,0.276,6.2,32
145,G,6,0.273,6.2,82
117,V,6,0.267,6.0,31
52,L,5,0.266,6.0,57
57,W,5,0.261,5.9,43
199,D,3,0.249,5.6,81
210,L,5,0.237,5.4,44
65,Y,5,0.236,5.3,23
229,Y,8,0.231,5.2,56
127,A,6,0.224,5.1,45
142,S,4,0.215,4.9,27
107,D,3,0.214,4.8,90
217,G,7,0.212,4.8,65
204,V,7,0.211,4.8,65
39,V,4,0.207,4.7,42
37,Y,4,0.202,4.6,46
215,S,6,0.182,4.1,74
201,G,7,0.18,4.1,88
35,V,5,0.18,4.1,20
141,I,4,0.179,4.0,44
73,L,4,0.178,4.0,38
214,V,4,0.176,4.0,46
49,G,6,0.176,4.0,66
182,N,5,0.165,3.7,17
212,G,7,0.164,3.7,85
195,S,4,0.156,3.5,24
76,H,5,0.14,3.2,24
110,L,2,0.139,3.2,67
164,P,3,0.136,3.1,34
216,W,3,0.136,3.1,39
161,L,3,0.133,3.0,33
105,N,3,0.132,3.0,19
51,S,3,0.13,2.9,37
34,S,1,0.127,2.9,18
61,A,5,0.127,2.9,80
60,S,5,0.124,2.8,76
143,G,5,0.122,2.8,90
126,V,3,0.121,2.7,37
228,V,4,0.117,2.7,52
29,T,3,0.116,2.6,17
88,V,5,0.116,2.6,15
106,N,4,0.116,2.6,44
123,V,4,0.115,2.6,43
186,V,4,0.113,2.5,61
183,M,4,0.113,2.5,42
230,T,4,0.107,2.4,49
91,A,2,0.107,2.4,14
198,G,5,0.106,2.4,81
59,V,3,0.104,2.4,61
222,L,2,0.102,2.3,11
211,Q,4,0.102,2.3,27
235,Y,3,0.098,2.2,36
205,V,3,0.095,2.2,37
114,S,3,0.094,2.1,15
56,Q,2,0.091,2.1,21
144,W,4,0.09,2.0,74
86,Q,3,0.085,1.9,33
187,G,1,0.085,1.9,56
140,L,4,0.085,1.9,18
221,A,3,0.085,1.9,28
116,P,3,0.085,1.9,44
62,A,3,0.083,1.9,74
149,S,1,0.083,1.9,14
158,L,3,0.082,1.8,73
226,P,3,0.08,1.8,60
85,E,3,0.076,1.7,15
108,I,2,0.076,1.7,59
223,P,3,0.074,1.7,21
75,E,3,0.074,1.7,16
119,L,2,0.072,1.6,29
193,K,1,0.07,1.6,26
96,H,2,0.07,1.6,70
129,P,3,0.066,1.5,57
213,I,3,0.065,1.5,42
84,N,2,0.063,1.4,13
111,I,2,0.062,1.4,46
168,Q,2,0.062,1.4,20
55,D,3,0.061,1.4,17
72,R,2,0.061,1.4,24
113,L,2,0.059,1.3,75
159,Q,1,0.059,1.3,36
87,F,2,0.059,1.3,11
163,A,2,0.058,1.3,37
165,L,2,0.057,1.3,27
203,P,3,0.057,1.3,78
67,S,2,0.056,1.3,18
45,Y,2,0.051,1.1,20
93,I,2,0.05,1.1,32
95,K,2,0.05,1.1,18
188,F,2,0.047,1.1,15
77,N,1,0.044,1.0,16
92,K,1,0.044,1.0,20
125,T,1,0.044,1.0,56
90,A,1,0.042,1.0,50
89,N,1,0.041,0.9,9
94,I,2,0.04,0.9,33
27,G,2,0.04,0.9,64
238,W,2,0.04,0.9,70
236,V,2,0.039,0.9,18
136,G,2,0.039,0.9,53
202,G,2,0.039,0.9,74
184,V,1,0.038,0.9,29
24,I,2,0.038,0.9,48
233,C,1,0.038,0.9,26
231,K,1,0.037,0.8,32
180,T,1,0.037,0.8,29
239,I,1,0.036,0.8,63
232,V,1,0.036,0.8,56
155,P,1,0.032,0.7,28
147,T,1,0.032,0.7,37
83,G,1,0.031,0.7,25
30,C,1,0.031,0.7,37
234,N,1,0.031,0.7,12
66,K,1,0.03,0.7,7
53,I,1,0.029,0.7,56
33,N,1,0.026,0.6,31
54,N,1,0.026,0.6,27
219,G,1,0.025,0.6,39
166,L,1,0.025,0.6,25
179,I,1,0.024,0.6,32
43,S,1,0.024,0.5,11
44,G,1,0.023,0.5,9
98,N,1,0.022,0.5,14
74,G,1,0.022,0.5,77
99,F,1,0.021,0.5,56
138,Q,1,0.021,0.5,10
32,E,1,0.02,0.5,19
162,D,1,0.02,0.5,11
42,N,1,0.02,0.4,18
167,P,1,0.019,0.4,27
135,A,1,0.019,0.4,14
115,S,1,0.018,0.4,15
157,L,1,0.018,0.4,16
209,E,1,0.018,0.4,11
191,G,1,0.018,0.4,37
197,Q,1,0.018,0.4,33
146,N,1,0.018,0.4,15
71,V,1,0.018,0.4,55
150,S,1,0.018,0.4,22
154,E,1,0.017,0.4,11
128,L,1,0.017,0.4,72
225,N,1,0.017,0.4,12
218,Y,1,0.017,0.4,8
120,N,1,0.017,0.4,25
78,I,1,0.017,0.4,26
