50	689	0.306931	0.0449927	31	31	50	101	689	31	0	0
60	551	0.207921	0.0381125	21	21	60	101	551	21	0	0
70	413	0.158416	0.0387409	16	16	70	101	413	16	0	0
80	275	0.108911	0.04	11	11	80	101	275	11	0	0
90	137	0.039604	0.0291971	4	4	90	101	137	4	0	0
