32	A	C	9
33	K	C	8
34	A	C	8
35	Q	C	9
36	R	C	9
37	P	C	9
38	D	C	9
39	F	C	7
40	C	C	7
41	L	C	5
42	E	C	8
43	P	C	9
44	P	C	9
45	Y	C	8
46	T	C	6
47	G	C	4
48	P	C	8
49	C	C	7
50	K	C	6
51	A	C	4
52	R	C	3
53	I	C	2
54	I	C	0
55	R	E	1
56	Y	E	4
57	F	E	7
58	Y	E	8
59	N	E	4
60	A	C	8
61	K	C	9
62	A	C	9
63	G	C	9
64	L	C	2
65	C	E	3
66	Q	E	0
67	T	E	2
68	F	E	5
69	V	E	6
70	Y	E	3
71	G	C	8
72	G	C	6
73	C	C	8
74	R	C	9
75	A	C	8
76	K	C	9
77	R	C	8
78	N	C	8
79	N	C	9
80	F	C	7
81	K	C	0
82	S	C	8
83	A	H	9
84	E	H	9
85	D	H	9
86	C	H	9
87	M	H	9
88	R	H	8
89	T	H	7
90	C	C	1
91	G	C	8
92	G	C	8
93	A	C	9
94	I	C	9
95	G	C	9
96	P	C	9
97	W	C	8
98	E	C	9
